%YAML 1.1
%TAG !u! tag:unity3d.com,2011:
--- !u!1001 &4330168218245096865
PrefabInstance:
  m_ObjectHideFlags: 0
  serializedVersion: 2
  m_Modification:
    m_TransformParent: {fileID: 0}
    m_Modifications:
    - target: {fileID: 2221651370425608981, guid: 399e5abd86ae3713c8fdb7f3c24cc023, type: 3}
      propertyPath: m_Materials.Array.data[0]
      value: 
      objectReference: {fileID: 2100000, guid: db23c7610d8281010bd028874ff61629, type: 2}
    - target: {fileID: 3353254378167962429, guid: 399e5abd86ae3713c8fdb7f3c24cc023, type: 3}
      propertyPath: m_Name
      value: GroundFinish
      objectReference: {fileID: 0}
    - target: {fileID: 8431348249204482915, guid: 399e5abd86ae3713c8fdb7f3c24cc023, type: 3}
      propertyPath: m_RootOrder
      value: 0
      objectReference: {fileID: 0}
    - target: {fileID: 8431348249204482915, guid: 399e5abd86ae3713c8fdb7f3c24cc023, type: 3}
      propertyPath: m_LocalPosition.x
      value: 135.66
      objectReference: {fileID: 0}
    - target: {fileID: 8431348249204482915, guid: 399e5abd86ae3713c8fdb7f3c24cc023, type: 3}
      propertyPath: m_LocalPosition.y
      value: -223.01059
      objectReference: {fileID: 0}
    - target: {fileID: 8431348249204482915, guid: 399e5abd86ae3713c8fdb7f3c24cc023, type: 3}
      propertyPath: m_LocalPosition.z
      value: -40.42
      objectReference: {fileID: 0}
    - target: {fileID: 8431348249204482915, guid: 399e5abd86ae3713c8fdb7f3c24cc023, type: 3}
      propertyPath: m_LocalRotation.w
      value: 1
      objectReference: {fileID: 0}
    - target: {fileID: 8431348249204482915, guid: 399e5abd86ae3713c8fdb7f3c24cc023, type: 3}
      propertyPath: m_LocalRotation.x
      value: 0
      objectReference: {fileID: 0}
    - target: {fileID: 8431348249204482915, guid: 399e5abd86ae3713c8fdb7f3c24cc023, type: 3}
      propertyPath: m_LocalRotation.y
      value: 0
      objectReference: {fileID: 0}
    - target: {fileID: 8431348249204482915, guid: 399e5abd86ae3713c8fdb7f3c24cc023, type: 3}
      propertyPath: m_LocalRotation.z
      value: 0
      objectReference: {fileID: 0}
    - target: {fileID: 8431348249204482915, guid: 399e5abd86ae3713c8fdb7f3c24cc023, type: 3}
      propertyPath: m_LocalEulerAnglesHint.x
      value: 0
      objectReference: {fileID: 0}
    - target: {fileID: 8431348249204482915, guid: 399e5abd86ae3713c8fdb7f3c24cc023, type: 3}
      propertyPath: m_LocalEulerAnglesHint.y
      value: 0
      objectReference: {fileID: 0}
    - target: {fileID: 8431348249204482915, guid: 399e5abd86ae3713c8fdb7f3c24cc023, type: 3}
      propertyPath: m_LocalEulerAnglesHint.z
      value: 0
      objectReference: {fileID: 0}
    m_RemovedComponents: []
  m_SourcePrefab: {fileID: 100100000, guid: 399e5abd86ae3713c8fdb7f3c24cc023, type: 3}
