%YAML 1.1
%TAG !u! tag:unity3d.com,2011:
--- !u!1 &1012171584066370
GameObject:
  m_ObjectHideFlags: 0
  m_CorrespondingSourceObject: {fileID: 0}
  m_PrefabInstance: {fileID: 0}
  m_PrefabAsset: {fileID: 0}
  serializedVersion: 6
  m_Component:
  - component: {fileID: 4671722250273960}
  m_Layer: 30
  m_Name: Top_Rotation
  m_TagString: Untagged
  m_Icon: {fileID: 0}
  m_NavMeshLayer: 0
  m_StaticEditorFlags: 0
  m_IsActive: 1
--- !u!4 &4671722250273960
Transform:
  m_ObjectHideFlags: 0
  m_CorrespondingSourceObject: {fileID: 0}
  m_PrefabInstance: {fileID: 0}
  m_PrefabAsset: {fileID: 0}
  m_GameObject: {fileID: 1012171584066370}
  m_LocalRotation: {x: 0.00000023228468, y: -0.84424984, z: -0.00000026502383, w: 0.5359498}
  m_LocalPosition: {x: 0.043424338, y: 0.0000001829358, z: -0.21496557}
  m_LocalScale: {x: 1, y: 1, z: 0.99999994}
  m_Children:
  - {fileID: 4557269412691568}
  m_Father: {fileID: 4560423022380552}
  m_RootOrder: 6
  m_LocalEulerAnglesHint: {x: 0, y: 0, z: 0}
--- !u!1 &1020448041891802
GameObject:
  m_ObjectHideFlags: 0
  m_CorrespondingSourceObject: {fileID: 0}
  m_PrefabInstance: {fileID: 0}
  m_PrefabAsset: {fileID: 0}
  serializedVersion: 6
  m_Component:
  - component: {fileID: 4344853690642730}
  m_Layer: 30
  m_Name: Top_Bone6
  m_TagString: Untagged
  m_Icon: {fileID: 0}
  m_NavMeshLayer: 0
  m_StaticEditorFlags: 0
  m_IsActive: 1
--- !u!4 &4344853690642730
Transform:
  m_ObjectHideFlags: 0
  m_CorrespondingSourceObject: {fileID: 0}
  m_PrefabInstance: {fileID: 0}
  m_PrefabAsset: {fileID: 0}
  m_GameObject: {fileID: 1020448041891802}
  m_LocalRotation: {x: 0.00000023867224, y: 0.0033772485, z: -1.8445703e-15, w: 0.99999434}
  m_LocalPosition: {x: -0.038562216, y: 0.000000002911366, z: 0.000000007450581}
  m_LocalScale: {x: 0.99999994, y: 1, z: 0.99999994}
  m_Children:
  - {fileID: 4859317946184184}
  m_Father: {fileID: 4222611862627060}
  m_RootOrder: 0
  m_LocalEulerAnglesHint: {x: 0, y: 0, z: 0}
--- !u!1 &1033406390676644
GameObject:
  m_ObjectHideFlags: 0
  m_CorrespondingSourceObject: {fileID: 0}
  m_PrefabInstance: {fileID: 0}
  m_PrefabAsset: {fileID: 0}
  serializedVersion: 6
  m_Component:
  - component: {fileID: 4513195549490814}
  m_Layer: 30
  m_Name: Fire Point
  m_TagString: Untagged
  m_Icon: {fileID: 0}
  m_NavMeshLayer: 0
  m_StaticEditorFlags: 0
  m_IsActive: 1
--- !u!4 &4513195549490814
Transform:
  m_ObjectHideFlags: 0
  m_CorrespondingSourceObject: {fileID: 0}
  m_PrefabInstance: {fileID: 0}
  m_PrefabAsset: {fileID: 0}
  m_GameObject: {fileID: 1033406390676644}
  m_LocalRotation: {x: 0.027508626, y: -0.023969967, z: -0.0002732221, w: 0.99933416}
  m_LocalPosition: {x: -0.0068, y: -0.065, z: 0}
  m_LocalScale: {x: 1, y: 1, z: 1}
  m_Children: []
  m_Father: {fileID: 4337790425054022}
  m_RootOrder: 0
  m_LocalEulerAnglesHint: {x: 3.151, y: -2.751, z: -0.107}
--- !u!1 &1052721918385394
GameObject:
  m_ObjectHideFlags: 0
  m_CorrespondingSourceObject: {fileID: 0}
  m_PrefabInstance: {fileID: 0}
  m_PrefabAsset: {fileID: 0}
  serializedVersion: 6
  m_Component:
  - component: {fileID: 4266087156349474}
  m_Layer: 29
  m_Name: Top_Bone5
  m_TagString: Untagged
  m_Icon: {fileID: 0}
  m_NavMeshLayer: 0
  m_StaticEditorFlags: 0
  m_IsActive: 1
--- !u!4 &4266087156349474
Transform:
  m_ObjectHideFlags: 0
  m_CorrespondingSourceObject: {fileID: 0}
  m_PrefabInstance: {fileID: 0}
  m_PrefabAsset: {fileID: 0}
  m_GameObject: {fileID: 1052721918385394}
  m_LocalRotation: {x: -0.00000024008608, y: -0.022915578, z: -3.5346655e-15, w: 0.99973744}
  m_LocalPosition: {x: -0.04295731, y: 0.000000003243189, z: 0.000000014901161}
  m_LocalScale: {x: 1, y: 1, z: 1}
  m_Children:
  - {fileID: 4093541626654792}
  m_Father: {fileID: 4621105645244988}
  m_RootOrder: 0
  m_LocalEulerAnglesHint: {x: 0, y: 0, z: 0}
--- !u!1 &1056696613768904
GameObject:
  m_ObjectHideFlags: 0
  m_CorrespondingSourceObject: {fileID: 0}
  m_PrefabInstance: {fileID: 0}
  m_PrefabAsset: {fileID: 0}
  serializedVersion: 6
  m_Component:
  - component: {fileID: 4903679039060982}
  m_Layer: 30
  m_Name: Bottom_Bone8
  m_TagString: Untagged
  m_Icon: {fileID: 0}
  m_NavMeshLayer: 0
  m_StaticEditorFlags: 0
  m_IsActive: 1
--- !u!4 &4903679039060982
Transform:
  m_ObjectHideFlags: 0
  m_CorrespondingSourceObject: {fileID: 0}
  m_PrefabInstance: {fileID: 0}
  m_PrefabAsset: {fileID: 0}
  m_GameObject: {fileID: 1056696613768904}
  m_LocalRotation: {x: 0.00000011509654, y: -0.052313473, z: 0.000000006236255, w: 0.99863076}
  m_LocalPosition: {x: -0.045106053, y: 0.00000000340541, z: -0.000000014901161}
  m_LocalScale: {x: 1, y: 1, z: 1}
  m_Children:
  - {fileID: 4680134189982004}
  m_Father: {fileID: 4252190474597284}
  m_RootOrder: 0
  m_LocalEulerAnglesHint: {x: 0, y: 0, z: 0}
--- !u!1 &1066152043040172
GameObject:
  m_ObjectHideFlags: 0
  m_CorrespondingSourceObject: {fileID: 0}
  m_PrefabInstance: {fileID: 0}
  m_PrefabAsset: {fileID: 0}
  serializedVersion: 6
  m_Component:
  - component: {fileID: 4914118757860392}
  m_Layer: 29
  m_Name: Top_IK
  m_TagString: Untagged
  m_Icon: {fileID: 0}
  m_NavMeshLayer: 0
  m_StaticEditorFlags: 0
  m_IsActive: 1
--- !u!4 &4914118757860392
Transform:
  m_ObjectHideFlags: 0
  m_CorrespondingSourceObject: {fileID: 0}
  m_PrefabInstance: {fileID: 0}
  m_PrefabAsset: {fileID: 0}
  m_GameObject: {fileID: 1066152043040172}
  m_LocalRotation: {x: -0.00000014110556, y: -0.53594977, z: 0.00000006389016, w: 0.84424984}
  m_LocalPosition: {x: -0.38126567, y: 0.00000002878475, z: 0}
  m_LocalScale: {x: 0.99999994, y: 1, z: 1}
  m_Children: []
  m_Father: {fileID: 4262613252438076}
  m_RootOrder: 0
  m_LocalEulerAnglesHint: {x: 0, y: 0, z: 0}
--- !u!1 &1075687369871972
GameObject:
  m_ObjectHideFlags: 0
  m_CorrespondingSourceObject: {fileID: 0}
  m_PrefabInstance: {fileID: 0}
  m_PrefabAsset: {fileID: 0}
  serializedVersion: 6
  m_Component:
  - component: {fileID: 4048988875961470}
  m_Layer: 30
  m_Name: Top_Bone9
  m_TagString: Untagged
  m_Icon: {fileID: 0}
  m_NavMeshLayer: 0
  m_StaticEditorFlags: 0
  m_IsActive: 1
--- !u!4 &4048988875961470
Transform:
  m_ObjectHideFlags: 0
  m_CorrespondingSourceObject: {fileID: 0}
  m_PrefabInstance: {fileID: 0}
  m_PrefabAsset: {fileID: 0}
  m_GameObject: {fileID: 1075687369871972}
  m_LocalRotation: {x: -0.00000023310827, y: 0.0638868, z: -2.367054e-15, w: 0.99795717}
  m_LocalPosition: {x: -0.030196965, y: 0.000000002279801, z: -0.000000007450581}
  m_LocalScale: {x: 0.99999994, y: 1, z: 1}
  m_Children: []
  m_Father: {fileID: 4127514777884008}
  m_RootOrder: 0
  m_LocalEulerAnglesHint: {x: 0, y: 0, z: 0}
--- !u!1 &1080784717233476
GameObject:
  m_ObjectHideFlags: 0
  m_CorrespondingSourceObject: {fileID: 0}
  m_PrefabInstance: {fileID: 0}
  m_PrefabAsset: {fileID: 0}
  serializedVersion: 6
  m_Component:
  - component: {fileID: 4542341492392632}
  m_Layer: 29
  m_Name: Top_Bone9
  m_TagString: Untagged
  m_Icon: {fileID: 0}
  m_NavMeshLayer: 0
  m_StaticEditorFlags: 0
  m_IsActive: 1
--- !u!4 &4542341492392632
Transform:
  m_ObjectHideFlags: 0
  m_CorrespondingSourceObject: {fileID: 0}
  m_PrefabInstance: {fileID: 0}
  m_PrefabAsset: {fileID: 0}
  m_GameObject: {fileID: 1080784717233476}
  m_LocalRotation: {x: -0.00000023310827, y: 0.0638868, z: -2.367054e-15, w: 0.99795717}
  m_LocalPosition: {x: -0.030196965, y: 0.000000002279801, z: -0.000000007450581}
  m_LocalScale: {x: 0.99999994, y: 1, z: 1}
  m_Children: []
  m_Father: {fileID: 4799375473425052}
  m_RootOrder: 0
  m_LocalEulerAnglesHint: {x: 0, y: 0, z: 0}
--- !u!1 &1088720591851094
GameObject:
  m_ObjectHideFlags: 0
  m_CorrespondingSourceObject: {fileID: 0}
  m_PrefabInstance: {fileID: 0}
  m_PrefabAsset: {fileID: 0}
  serializedVersion: 6
  m_Component:
  - component: {fileID: 4104885567372648}
  m_Layer: 29
  m_Name: Fire Point
  m_TagString: Untagged
  m_Icon: {fileID: 0}
  m_NavMeshLayer: 0
  m_StaticEditorFlags: 0
  m_IsActive: 1
--- !u!4 &4104885567372648
Transform:
  m_ObjectHideFlags: 0
  m_CorrespondingSourceObject: {fileID: 0}
  m_PrefabInstance: {fileID: 0}
  m_PrefabAsset: {fileID: 0}
  m_GameObject: {fileID: 1088720591851094}
  m_LocalRotation: {x: 0.016592901, y: -0.0021014498, z: 0.7019957, w: 0.71198475}
  m_LocalPosition: {x: 0.3257, y: -0.0671, z: -0.0162}
  m_LocalScale: {x: 1, y: 1, z: 1}
  m_Children: []
  m_Father: {fileID: 4462058315482612}
  m_RootOrder: 0
  m_LocalEulerAnglesHint: {x: 1.5230001, y: 1.164, z: 89.206}
--- !u!1 &1113942663697110
GameObject:
  m_ObjectHideFlags: 0
  m_CorrespondingSourceObject: {fileID: 0}
  m_PrefabInstance: {fileID: 0}
  m_PrefabAsset: {fileID: 0}
  serializedVersion: 6
  m_Component:
  - component: {fileID: 4550479972411232}
  m_Layer: 29
  m_Name: Bottom_Bone3
  m_TagString: Untagged
  m_Icon: {fileID: 0}
  m_NavMeshLayer: 0
  m_StaticEditorFlags: 0
  m_IsActive: 1
--- !u!4 &4550479972411232
Transform:
  m_ObjectHideFlags: 0
  m_CorrespondingSourceObject: {fileID: 0}
  m_PrefabInstance: {fileID: 0}
  m_PrefabAsset: {fileID: 0}
  m_GameObject: {fileID: 1113942663697110}
  m_LocalRotation: {x: -0.000000116208135, y: 0.038576182, z: 0.0000000045986384,
    w: 0.99925566}
  m_LocalPosition: {x: -0.048070267, y: 0.000000003629205, z: -0.00000000372529}
  m_LocalScale: {x: 1.0000001, y: 1, z: 1.0000001}
  m_Children:
  - {fileID: 4487537488583048}
  m_Father: {fileID: 4676967359179930}
  m_RootOrder: 0
  m_LocalEulerAnglesHint: {x: 0, y: 0, z: 0}
--- !u!1 &1119307456498288
GameObject:
  m_ObjectHideFlags: 0
  m_CorrespondingSourceObject: {fileID: 0}
  m_PrefabInstance: {fileID: 0}
  m_PrefabAsset: {fileID: 0}
  serializedVersion: 6
  m_Component:
  - component: {fileID: 4859317946184184}
  m_Layer: 30
  m_Name: Top_Bone7
  m_TagString: Untagged
  m_Icon: {fileID: 0}
  m_NavMeshLayer: 0
  m_StaticEditorFlags: 0
  m_IsActive: 1
--- !u!4 &4859317946184184
Transform:
  m_ObjectHideFlags: 0
  m_CorrespondingSourceObject: {fileID: 0}
  m_PrefabInstance: {fileID: 0}
  m_PrefabAsset: {fileID: 0}
  m_GameObject: {fileID: 1119307456498288}
  m_LocalRotation: {x: -0.00000011952044, y: -0.0041346382, z: 4.9288723e-10, w: 0.9999915}
  m_LocalPosition: {x: -0.040982448, y: 0.000000003094087, z: -0.000000014901161}
  m_LocalScale: {x: 1, y: 1, z: 0.99999994}
  m_Children:
  - {fileID: 4127514777884008}
  m_Father: {fileID: 4344853690642730}
  m_RootOrder: 0
  m_LocalEulerAnglesHint: {x: 0, y: 0, z: 0}
--- !u!1 &1132104723806240
GameObject:
  m_ObjectHideFlags: 0
  m_CorrespondingSourceObject: {fileID: 0}
  m_PrefabInstance: {fileID: 0}
  m_PrefabAsset: {fileID: 0}
  serializedVersion: 6
  m_Component:
  - component: {fileID: 4885854470596956}
  m_Layer: 29
  m_Name: Bottom_Limit
  m_TagString: Untagged
  m_Icon: {fileID: 0}
  m_NavMeshLayer: 0
  m_StaticEditorFlags: 0
  m_IsActive: 1
--- !u!4 &4885854470596956
Transform:
  m_ObjectHideFlags: 0
  m_CorrespondingSourceObject: {fileID: 0}
  m_PrefabInstance: {fileID: 0}
  m_PrefabAsset: {fileID: 0}
  m_GameObject: {fileID: 1132104723806240}
  m_LocalRotation: {x: 0.00000007549788, y: 1, z: 0.00000043312576, w: 0.000000043709164}
  m_LocalPosition: {x: 0.20565885, y: -0.000000500621, z: 0.5599923}
  m_LocalScale: {x: 1, y: 1, z: 1}
  m_Children: []
  m_Father: {fileID: 4068923628064324}
  m_RootOrder: 1
  m_LocalEulerAnglesHint: {x: 0, y: 0, z: 0}
--- !u!1 &1136386453775690
GameObject:
  m_ObjectHideFlags: 0
  m_CorrespondingSourceObject: {fileID: 0}
  m_PrefabInstance: {fileID: 0}
  m_PrefabAsset: {fileID: 0}
  serializedVersion: 6
  m_Component:
  - component: {fileID: 4543980292542660}
  m_Layer: 30
  m_Name: Bottom_Bone6
  m_TagString: Untagged
  m_Icon: {fileID: 0}
  m_NavMeshLayer: 0
  m_StaticEditorFlags: 0
  m_IsActive: 1
--- !u!4 &4543980292542660
Transform:
  m_ObjectHideFlags: 0
  m_CorrespondingSourceObject: {fileID: 0}
  m_PrefabInstance: {fileID: 0}
  m_PrefabAsset: {fileID: 0}
  m_GameObject: {fileID: 1136386453775690}
  m_LocalRotation: {x: 0.00000023816229, y: -0.0033772485, z: 8.865837e-15, w: 0.99999434}
  m_LocalPosition: {x: -0.038562216, y: 0.000000002911365, z: -0.000000007450581}
  m_LocalScale: {x: 0.99999994, y: 1, z: 0.99999994}
  m_Children:
  - {fileID: 4252190474597284}
  m_Father: {fileID: 4538874633327308}
  m_RootOrder: 0
  m_LocalEulerAnglesHint: {x: 0, y: 0, z: 0}
--- !u!1 &1184007031525994
GameObject:
  m_ObjectHideFlags: 0
  m_CorrespondingSourceObject: {fileID: 0}
  m_PrefabInstance: {fileID: 0}
  m_PrefabAsset: {fileID: 0}
  serializedVersion: 6
  m_Component:
  - component: {fileID: 4653453742997424}
  - component: {fileID: 95382898111383176}
  - component: {fileID: 82144518653261928}
  - component: {fileID: 114637835907904748}
  m_Layer: 29
  m_Name: First Person Bow
  m_TagString: Untagged
  m_Icon: {fileID: 0}
  m_NavMeshLayer: 0
  m_StaticEditorFlags: 0
  m_IsActive: 1
--- !u!4 &4653453742997424
Transform:
  m_ObjectHideFlags: 0
  m_CorrespondingSourceObject: {fileID: 0}
  m_PrefabInstance: {fileID: 0}
  m_PrefabAsset: {fileID: 0}
  m_GameObject: {fileID: 1184007031525994}
  m_LocalRotation: {x: 0, y: 0, z: 0, w: 1}
  m_LocalPosition: {x: 0, y: 0, z: 0}
  m_LocalScale: {x: 1, y: 1, z: 1}
  m_Children:
  - {fileID: 4732546666129520}
  - {fileID: 4873099963635764}
  m_Father: {fileID: 4571403375465286}
  m_RootOrder: 0
  m_LocalEulerAnglesHint: {x: 0, y: 0, z: 0}
--- !u!95 &95382898111383176
Animator:
  serializedVersion: 3
  m_ObjectHideFlags: 0
  m_CorrespondingSourceObject: {fileID: 0}
  m_PrefabInstance: {fileID: 0}
  m_PrefabAsset: {fileID: 0}
  m_GameObject: {fileID: 1184007031525994}
  m_Enabled: 1
  m_Avatar: {fileID: 9000000, guid: 2073b67b18a7cf447a5d0f80c1531cba, type: 3}
  m_Controller: {fileID: 9100000, guid: 236dad69c266a0346b5dde1ce4ee4a27, type: 2}
  m_CullingMode: 1
  m_UpdateMode: 0
  m_ApplyRootMotion: 0
  m_LinearVelocityBlending: 0
  m_WarningMessage: 
  m_HasTransformHierarchy: 1
  m_AllowConstantClipSamplingOptimization: 1
  m_KeepAnimatorControllerStateOnDisable: 0
--- !u!82 &82144518653261928
AudioSource:
  m_ObjectHideFlags: 0
  m_CorrespondingSourceObject: {fileID: 0}
  m_PrefabInstance: {fileID: 0}
  m_PrefabAsset: {fileID: 0}
  m_GameObject: {fileID: 1184007031525994}
  m_Enabled: 1
  serializedVersion: 4
  OutputAudioMixerGroup: {fileID: 0}
  m_audioClip: {fileID: 0}
  m_PlayOnAwake: 1
  m_Volume: 1
  m_Pitch: 1
  Loop: 0
  Mute: 0
  Spatialize: 0
  SpatializePostEffects: 0
  Priority: 128
  DopplerLevel: 1
  MinDistance: 1
  MaxDistance: 500
  Pan2D: 0
  rolloffMode: 0
  BypassEffects: 0
  BypassListenerEffects: 0
  BypassReverbZones: 0
  rolloffCustomCurve:
    serializedVersion: 2
    m_Curve:
    - serializedVersion: 3
      time: 0
      value: 1
      inSlope: 0
      outSlope: 0
      tangentMode: 0
      weightedMode: 0
      inWeight: 0.33333334
      outWeight: 0.33333334
    - serializedVersion: 3
      time: 1
      value: 0
      inSlope: 0
      outSlope: 0
      tangentMode: 0
      weightedMode: 0
      inWeight: 0.33333334
      outWeight: 0.33333334
    m_PreInfinity: 2
    m_PostInfinity: 2
    m_RotationOrder: 4
  panLevelCustomCurve:
    serializedVersion: 2
    m_Curve:
    - serializedVersion: 3
      time: 0
      value: 0
      inSlope: 0
      outSlope: 0
      tangentMode: 0
      weightedMode: 0
      inWeight: 0.33333334
      outWeight: 0.33333334
    m_PreInfinity: 2
    m_PostInfinity: 2
    m_RotationOrder: 0
  spreadCustomCurve:
    serializedVersion: 2
    m_Curve:
    - serializedVersion: 3
      time: 0
      value: 0
      inSlope: 0
      outSlope: 0
      tangentMode: 0
      weightedMode: 0
      inWeight: 0.33333334
      outWeight: 0.33333334
    m_PreInfinity: 2
    m_PostInfinity: 2
    m_RotationOrder: 4
  reverbZoneMixCustomCurve:
    serializedVersion: 2
    m_Curve:
    - serializedVersion: 3
      time: 0
      value: 1
      inSlope: 0
      outSlope: 0
      tangentMode: 0
      weightedMode: 0
      inWeight: 0.33333334
      outWeight: 0.33333334
    m_PreInfinity: 2
    m_PostInfinity: 2
    m_RotationOrder: 0
--- !u!114 &114637835907904748
MonoBehaviour:
  m_ObjectHideFlags: 0
  m_CorrespondingSourceObject: {fileID: 0}
  m_PrefabInstance: {fileID: 0}
  m_PrefabAsset: {fileID: 0}
  m_GameObject: {fileID: 1184007031525994}
  m_Enabled: 1
  m_EditorHideFlags: 0
  m_Script: {fileID: 11500000, guid: 527b6ce4c43b6dd458111a6670a3de65, type: 3}
  m_Name: 
  m_EditorClassIdentifier: 
--- !u!1 &1192923254472754
GameObject:
  m_ObjectHideFlags: 0
  m_CorrespondingSourceObject: {fileID: 0}
  m_PrefabInstance: {fileID: 0}
  m_PrefabAsset: {fileID: 0}
  serializedVersion: 6
  m_Component:
  - component: {fileID: 4156584278301634}
  m_Layer: 29
  m_Name: Bottom_Bone6
  m_TagString: Untagged
  m_Icon: {fileID: 0}
  m_NavMeshLayer: 0
  m_StaticEditorFlags: 0
  m_IsActive: 1
--- !u!4 &4156584278301634
Transform:
  m_ObjectHideFlags: 0
  m_CorrespondingSourceObject: {fileID: 0}
  m_PrefabInstance: {fileID: 0}
  m_PrefabAsset: {fileID: 0}
  m_GameObject: {fileID: 1192923254472754}
  m_LocalRotation: {x: 0.00000023816229, y: -0.0033772485, z: 8.865837e-15, w: 0.99999434}
  m_LocalPosition: {x: -0.038562216, y: 0.000000002911365, z: -0.000000007450581}
  m_LocalScale: {x: 0.99999994, y: 1, z: 0.99999994}
  m_Children:
  - {fileID: 4400639019808970}
  m_Father: {fileID: 4417878029323486}
  m_RootOrder: 0
  m_LocalEulerAnglesHint: {x: 0, y: 0, z: 0}
--- !u!1 &1202604926521346
GameObject:
  m_ObjectHideFlags: 0
  m_CorrespondingSourceObject: {fileID: 0}
  m_PrefabInstance: {fileID: 0}
  m_PrefabAsset: {fileID: 0}
  serializedVersion: 6
  m_Component:
  - component: {fileID: 4252190474597284}
  m_Layer: 30
  m_Name: Bottom_Bone7
  m_TagString: Untagged
  m_Icon: {fileID: 0}
  m_NavMeshLayer: 0
  m_StaticEditorFlags: 0
  m_IsActive: 1
--- !u!4 &4252190474597284
Transform:
  m_ObjectHideFlags: 0
  m_CorrespondingSourceObject: {fileID: 0}
  m_PrefabInstance: {fileID: 0}
  m_PrefabAsset: {fileID: 0}
  m_GameObject: {fileID: 1202604926521346}
  m_LocalRotation: {x: -0.000000118896125, y: 0.0041346382, z: -4.9288723e-10, w: 0.9999915}
  m_LocalPosition: {x: -0.040982448, y: 0.000000003094089, z: 0.000000014901161}
  m_LocalScale: {x: 1, y: 1, z: 0.99999994}
  m_Children:
  - {fileID: 4903679039060982}
  m_Father: {fileID: 4543980292542660}
  m_RootOrder: 0
  m_LocalEulerAnglesHint: {x: 0, y: 0, z: 0}
--- !u!1 &1206351217890306
GameObject:
  m_ObjectHideFlags: 0
  m_CorrespondingSourceObject: {fileID: 0}
  m_PrefabInstance: {fileID: 0}
  m_PrefabAsset: {fileID: 0}
  serializedVersion: 6
  m_Component:
  - component: {fileID: 4164691218828950}
  m_Layer: 29
  m_Name: Bottom_Bone8
  m_TagString: Untagged
  m_Icon: {fileID: 0}
  m_NavMeshLayer: 0
  m_StaticEditorFlags: 0
  m_IsActive: 1
--- !u!4 &4164691218828950
Transform:
  m_ObjectHideFlags: 0
  m_CorrespondingSourceObject: {fileID: 0}
  m_PrefabInstance: {fileID: 0}
  m_PrefabAsset: {fileID: 0}
  m_GameObject: {fileID: 1206351217890306}
  m_LocalRotation: {x: 0.00000011509654, y: -0.052313473, z: 0.000000006236255, w: 0.99863076}
  m_LocalPosition: {x: -0.045106053, y: 0.00000000340541, z: -0.000000014901161}
  m_LocalScale: {x: 1, y: 1, z: 1}
  m_Children:
  - {fileID: 4646082627612998}
  m_Father: {fileID: 4400639019808970}
  m_RootOrder: 0
  m_LocalEulerAnglesHint: {x: 0, y: 0, z: 0}
--- !u!1 &1213678888218084
GameObject:
  m_ObjectHideFlags: 0
  m_CorrespondingSourceObject: {fileID: 0}
  m_PrefabInstance: {fileID: 0}
  m_PrefabAsset: {fileID: 0}
  serializedVersion: 6
  m_Component:
  - component: {fileID: 4419857593908308}
  m_Layer: 29
  m_Name: Top_Bone2
  m_TagString: Untagged
  m_Icon: {fileID: 0}
  m_NavMeshLayer: 0
  m_StaticEditorFlags: 0
  m_IsActive: 1
--- !u!4 &4419857593908308
Transform:
  m_ObjectHideFlags: 0
  m_CorrespondingSourceObject: {fileID: 0}
  m_PrefabInstance: {fileID: 0}
  m_PrefabAsset: {fileID: 0}
  m_GameObject: {fileID: 1213678888218084}
  m_LocalRotation: {x: -0.0000000031182832, y: -0.041303016, z: 2.213283e-15, w: 0.9991467}
  m_LocalPosition: {x: -0.053405996, y: 0.000000004032039, z: 0}
  m_LocalScale: {x: 1.0000001, y: 1, z: 1}
  m_Children:
  - {fileID: 4913895747245240}
  m_Father: {fileID: 4018573782662570}
  m_RootOrder: 0
  m_LocalEulerAnglesHint: {x: 0, y: 0, z: 0}
--- !u!1 &1243820392143462
GameObject:
  m_ObjectHideFlags: 0
  m_CorrespondingSourceObject: {fileID: 0}
  m_PrefabInstance: {fileID: 0}
  m_PrefabAsset: {fileID: 0}
  serializedVersion: 6
  m_Component:
  - component: {fileID: 4289480986675342}
  m_Layer: 29
  m_Name: Bottom_Rotation
  m_TagString: Untagged
  m_Icon: {fileID: 0}
  m_NavMeshLayer: 0
  m_StaticEditorFlags: 0
  m_IsActive: 1
--- !u!4 &4289480986675342
Transform:
  m_ObjectHideFlags: 0
  m_CorrespondingSourceObject: {fileID: 0}
  m_PrefabInstance: {fileID: 0}
  m_PrefabAsset: {fileID: 0}
  m_GameObject: {fileID: 1243820392143462}
  m_LocalRotation: {x: 0.00000035976288, y: 0.84424984, z: 0.00000026502377, w: 0.5359498}
  m_LocalPosition: {x: 0.043424338, y: -0.0000001894927, z: 0.21496557}
  m_LocalScale: {x: 1, y: 1, z: 0.99999994}
  m_Children:
  - {fileID: 4357614018608114}
  m_Father: {fileID: 4068923628064324}
  m_RootOrder: 2
  m_LocalEulerAnglesHint: {x: 0, y: 0, z: 0}
--- !u!1 &1309209905130780
GameObject:
  m_ObjectHideFlags: 0
  m_CorrespondingSourceObject: {fileID: 0}
  m_PrefabInstance: {fileID: 0}
  m_PrefabAsset: {fileID: 0}
  serializedVersion: 6
  m_Component:
  - component: {fileID: 4262613252438076}
  m_Layer: 29
  m_Name: Top_Rotation
  m_TagString: Untagged
  m_Icon: {fileID: 0}
  m_NavMeshLayer: 0
  m_StaticEditorFlags: 0
  m_IsActive: 1
--- !u!4 &4262613252438076
Transform:
  m_ObjectHideFlags: 0
  m_CorrespondingSourceObject: {fileID: 0}
  m_PrefabInstance: {fileID: 0}
  m_PrefabAsset: {fileID: 0}
  m_GameObject: {fileID: 1309209905130780}
  m_LocalRotation: {x: 0.00000023228468, y: -0.84424984, z: -0.00000026502383, w: 0.5359498}
  m_LocalPosition: {x: 0.043424338, y: 0.0000001829358, z: -0.21496557}
  m_LocalScale: {x: 1, y: 1, z: 0.99999994}
  m_Children:
  - {fileID: 4914118757860392}
  m_Father: {fileID: 4068923628064324}
  m_RootOrder: 6
  m_LocalEulerAnglesHint: {x: 0, y: 0, z: 0}
--- !u!1 &1336426146421908
GameObject:
  m_ObjectHideFlags: 0
  m_CorrespondingSourceObject: {fileID: 0}
  m_PrefabInstance: {fileID: 0}
  m_PrefabAsset: {fileID: 0}
  serializedVersion: 6
  m_Component:
  - component: {fileID: 4371863642231172}
  m_Layer: 30
  m_Name: Bottom_Bone3
  m_TagString: Untagged
  m_Icon: {fileID: 0}
  m_NavMeshLayer: 0
  m_StaticEditorFlags: 0
  m_IsActive: 1
--- !u!4 &4371863642231172
Transform:
  m_ObjectHideFlags: 0
  m_CorrespondingSourceObject: {fileID: 0}
  m_PrefabInstance: {fileID: 0}
  m_PrefabAsset: {fileID: 0}
  m_GameObject: {fileID: 1336426146421908}
  m_LocalRotation: {x: -0.000000116208135, y: 0.038576182, z: 0.0000000045986384,
    w: 0.99925566}
  m_LocalPosition: {x: -0.048070267, y: 0.000000003629205, z: -0.00000000372529}
  m_LocalScale: {x: 1.0000001, y: 1, z: 1.0000001}
  m_Children:
  - {fileID: 4488393623511508}
  m_Father: {fileID: 4573322341927038}
  m_RootOrder: 0
  m_LocalEulerAnglesHint: {x: 0, y: 0, z: 0}
--- !u!1 &1354559324716098
GameObject:
  m_ObjectHideFlags: 0
  m_CorrespondingSourceObject: {fileID: 0}
  m_PrefabInstance: {fileID: 0}
  m_PrefabAsset: {fileID: 0}
  serializedVersion: 6
  m_Component:
  - component: {fileID: 4480204318675854}
  m_Layer: 30
  m_Name: Bottom_Limit
  m_TagString: Untagged
  m_Icon: {fileID: 0}
  m_NavMeshLayer: 0
  m_StaticEditorFlags: 0
  m_IsActive: 1
--- !u!4 &4480204318675854
Transform:
  m_ObjectHideFlags: 0
  m_CorrespondingSourceObject: {fileID: 0}
  m_PrefabInstance: {fileID: 0}
  m_PrefabAsset: {fileID: 0}
  m_GameObject: {fileID: 1354559324716098}
  m_LocalRotation: {x: 0.00000007549788, y: 1, z: 0.00000043312576, w: 0.000000043709164}
  m_LocalPosition: {x: 0.20565885, y: -0.000000500621, z: 0.5599923}
  m_LocalScale: {x: 1, y: 1, z: 1}
  m_Children: []
  m_Father: {fileID: 4560423022380552}
  m_RootOrder: 1
  m_LocalEulerAnglesHint: {x: 0, y: 0, z: 0}
--- !u!1 &1372789978455348
GameObject:
  m_ObjectHideFlags: 0
  m_CorrespondingSourceObject: {fileID: 0}
  m_PrefabInstance: {fileID: 0}
  m_PrefabAsset: {fileID: 0}
  serializedVersion: 6
  m_Component:
  - component: {fileID: 4462058315482612}
  m_Layer: 29
  m_Name: String
  m_TagString: Untagged
  m_Icon: {fileID: 0}
  m_NavMeshLayer: 0
  m_StaticEditorFlags: 0
  m_IsActive: 1
--- !u!4 &4462058315482612
Transform:
  m_ObjectHideFlags: 0
  m_CorrespondingSourceObject: {fileID: 0}
  m_PrefabInstance: {fileID: 0}
  m_PrefabAsset: {fileID: 0}
  m_GameObject: {fileID: 1372789978455348}
  m_LocalRotation: {x: 0.00000011098787, y: 0.70710593, z: 0.7071076, w: -0.000000004214388}
  m_LocalPosition: {x: 0.20142913, y: 0.000000007376897, z: 2e-14}
  m_LocalScale: {x: 1, y: 1, z: 1}
  m_Children:
  - {fileID: 4104885567372648}
  m_Father: {fileID: 4068923628064324}
  m_RootOrder: 3
  m_LocalEulerAnglesHint: {x: 0, y: 0, z: 0}
--- !u!1 &1407840248160310
GameObject:
  m_ObjectHideFlags: 0
  m_CorrespondingSourceObject: {fileID: 0}
  m_PrefabInstance: {fileID: 0}
  m_PrefabAsset: {fileID: 0}
  serializedVersion: 6
  m_Component:
  - component: {fileID: 4921945950761970}
  m_Layer: 30
  m_Name: Bottom_Bone1
  m_TagString: Untagged
  m_Icon: {fileID: 0}
  m_NavMeshLayer: 0
  m_StaticEditorFlags: 0
  m_IsActive: 1
--- !u!4 &4921945950761970
Transform:
  m_ObjectHideFlags: 0
  m_CorrespondingSourceObject: {fileID: 0}
  m_PrefabInstance: {fileID: 0}
  m_PrefabAsset: {fileID: 0}
  m_GameObject: {fileID: 1407840248160310}
  m_LocalRotation: {x: -0.00000010895098, y: 0.12373943, z: -0.000000014750868, w: 0.99231476}
  m_LocalPosition: {x: -0.20983194, y: 0.00000001584187, z: -0.000000001862645}
  m_LocalScale: {x: 1, y: 1, z: 1}
  m_Children:
  - {fileID: 4573322341927038}
  m_Father: {fileID: 4155198475602740}
  m_RootOrder: 0
  m_LocalEulerAnglesHint: {x: 0, y: 0, z: 0}
--- !u!1 &1424347125764296
GameObject:
  m_ObjectHideFlags: 0
  m_CorrespondingSourceObject: {fileID: 0}
  m_PrefabInstance: {fileID: 0}
  m_PrefabAsset: {fileID: 0}
  serializedVersion: 6
  m_Component:
  - component: {fileID: 4987027212912054}
  m_Layer: 30
  m_Name: Bottom_Rotation
  m_TagString: Untagged
  m_Icon: {fileID: 0}
  m_NavMeshLayer: 0
  m_StaticEditorFlags: 0
  m_IsActive: 1
--- !u!4 &4987027212912054
Transform:
  m_ObjectHideFlags: 0
  m_CorrespondingSourceObject: {fileID: 0}
  m_PrefabInstance: {fileID: 0}
  m_PrefabAsset: {fileID: 0}
  m_GameObject: {fileID: 1424347125764296}
  m_LocalRotation: {x: 0.00000035976288, y: 0.84424984, z: 0.00000026502377, w: 0.5359498}
  m_LocalPosition: {x: 0.043424338, y: -0.0000001894927, z: 0.21496557}
  m_LocalScale: {x: 1, y: 1, z: 0.99999994}
  m_Children:
  - {fileID: 4238395394338046}
  m_Father: {fileID: 4560423022380552}
  m_RootOrder: 2
  m_LocalEulerAnglesHint: {x: 0, y: 0, z: 0}
--- !u!1 &1428678088778996
GameObject:
  m_ObjectHideFlags: 0
  m_CorrespondingSourceObject: {fileID: 0}
  m_PrefabInstance: {fileID: 0}
  m_PrefabAsset: {fileID: 0}
  serializedVersion: 6
  m_Component:
  - component: {fileID: 4573322341927038}
  m_Layer: 30
  m_Name: Bottom_Bone2
  m_TagString: Untagged
  m_Icon: {fileID: 0}
  m_NavMeshLayer: 0
  m_StaticEditorFlags: 0
  m_IsActive: 1
--- !u!4 &4573322341927038
Transform:
  m_ObjectHideFlags: 0
  m_CorrespondingSourceObject: {fileID: 0}
  m_PrefabInstance: {fileID: 0}
  m_PrefabAsset: {fileID: 0}
  m_GameObject: {fileID: 1428678088778996}
  m_LocalRotation: {x: 0.0000000031182983, y: 0.041303016, z: -5.9956854e-15, w: 0.9991467}
  m_LocalPosition: {x: -0.053405996, y: 0.000000004032039, z: 0}
  m_LocalScale: {x: 1.0000001, y: 1, z: 1}
  m_Children:
  - {fileID: 4371863642231172}
  m_Father: {fileID: 4921945950761970}
  m_RootOrder: 0
  m_LocalEulerAnglesHint: {x: 0, y: 0, z: 0}
--- !u!1 &1436563259005118
GameObject:
  m_ObjectHideFlags: 0
  m_CorrespondingSourceObject: {fileID: 0}
  m_PrefabInstance: {fileID: 0}
  m_PrefabAsset: {fileID: 0}
  serializedVersion: 6
  m_Component:
  - component: {fileID: 4400639019808970}
  m_Layer: 29
  m_Name: Bottom_Bone7
  m_TagString: Untagged
  m_Icon: {fileID: 0}
  m_NavMeshLayer: 0
  m_StaticEditorFlags: 0
  m_IsActive: 1
--- !u!4 &4400639019808970
Transform:
  m_ObjectHideFlags: 0
  m_CorrespondingSourceObject: {fileID: 0}
  m_PrefabInstance: {fileID: 0}
  m_PrefabAsset: {fileID: 0}
  m_GameObject: {fileID: 1436563259005118}
  m_LocalRotation: {x: -0.000000118896125, y: 0.0041346382, z: -4.9288723e-10, w: 0.9999915}
  m_LocalPosition: {x: -0.040982448, y: 0.000000003094089, z: 0.000000014901161}
  m_LocalScale: {x: 1, y: 1, z: 0.99999994}
  m_Children:
  - {fileID: 4164691218828950}
  m_Father: {fileID: 4156584278301634}
  m_RootOrder: 0
  m_LocalEulerAnglesHint: {x: 0, y: 0, z: 0}
--- !u!1 &1451033151408034
GameObject:
  m_ObjectHideFlags: 0
  m_CorrespondingSourceObject: {fileID: 0}
  m_PrefabInstance: {fileID: 0}
  m_PrefabAsset: {fileID: 0}
  serializedVersion: 6
  m_Component:
  - component: {fileID: 4799375473425052}
  m_Layer: 29
  m_Name: Top_Bone8
  m_TagString: Untagged
  m_Icon: {fileID: 0}
  m_NavMeshLayer: 0
  m_StaticEditorFlags: 0
  m_IsActive: 1
--- !u!4 &4799375473425052
Transform:
  m_ObjectHideFlags: 0
  m_CorrespondingSourceObject: {fileID: 0}
  m_PrefabInstance: {fileID: 0}
  m_PrefabAsset: {fileID: 0}
  m_GameObject: {fileID: 1451033151408034}
  m_LocalRotation: {x: 0.00000012299566, y: 0.052313473, z: -0.000000006236249, w: 0.99863076}
  m_LocalPosition: {x: -0.045106053, y: 0.000000003405407, z: 0.000000014901161}
  m_LocalScale: {x: 1, y: 1, z: 1}
  m_Children:
  - {fileID: 4542341492392632}
  m_Father: {fileID: 4199295885085152}
  m_RootOrder: 0
  m_LocalEulerAnglesHint: {x: 0, y: 0, z: 0}
--- !u!1 &1458179514483516
GameObject:
  m_ObjectHideFlags: 0
  m_CorrespondingSourceObject: {fileID: 0}
  m_PrefabInstance: {fileID: 0}
  m_PrefabAsset: {fileID: 0}
  serializedVersion: 6
  m_Component:
  - component: {fileID: 4356992018479874}
  m_Layer: 30
  m_Name: Top_Bone1
  m_TagString: Untagged
  m_Icon: {fileID: 0}
  m_NavMeshLayer: 0
  m_StaticEditorFlags: 0
  m_IsActive: 1
--- !u!4 &4356992018479874
Transform:
  m_ObjectHideFlags: 0
  m_CorrespondingSourceObject: {fileID: 0}
  m_PrefabInstance: {fileID: 0}
  m_PrefabAsset: {fileID: 0}
  m_GameObject: {fileID: 1458179514483516}
  m_LocalRotation: {x: -0.0000001276351, y: -0.12373943, z: 0.000000014750871, w: 0.99231476}
  m_LocalPosition: {x: -0.20983194, y: 0.00000001584187, z: 0.000000001862645}
  m_LocalScale: {x: 1, y: 1, z: 1}
  m_Children:
  - {fileID: 4904547727862372}
  m_Father: {fileID: 4419524482057210}
  m_RootOrder: 0
  m_LocalEulerAnglesHint: {x: 0, y: 0, z: 0}
--- !u!1 &1494551443784212
GameObject:
  m_ObjectHideFlags: 0
  m_CorrespondingSourceObject: {fileID: 0}
  m_PrefabInstance: {fileID: 0}
  m_PrefabAsset: {fileID: 0}
  serializedVersion: 6
  m_Component:
  - component: {fileID: 4073965119125364}
  - component: {fileID: 137898121240665628}
  m_Layer: 30
  m_Name: Bow
  m_TagString: Untagged
  m_Icon: {fileID: 0}
  m_NavMeshLayer: 0
  m_StaticEditorFlags: 0
  m_IsActive: 1
--- !u!4 &4073965119125364
Transform:
  m_ObjectHideFlags: 0
  m_CorrespondingSourceObject: {fileID: 0}
  m_PrefabInstance: {fileID: 0}
  m_PrefabAsset: {fileID: 0}
  m_GameObject: {fileID: 1494551443784212}
  m_LocalRotation: {x: 0, y: -0, z: -0, w: 1}
  m_LocalPosition: {x: -0, y: 0, z: 0}
  m_LocalScale: {x: 1, y: 1, z: 1}
  m_Children: []
  m_Father: {fileID: 4091839401978056}
  m_RootOrder: 0
  m_LocalEulerAnglesHint: {x: 0, y: 0, z: 0}
--- !u!137 &137898121240665628
SkinnedMeshRenderer:
  m_ObjectHideFlags: 0
  m_CorrespondingSourceObject: {fileID: 0}
  m_PrefabInstance: {fileID: 0}
  m_PrefabAsset: {fileID: 0}
  m_GameObject: {fileID: 1494551443784212}
  m_Enabled: 1
  m_CastShadows: 1
  m_ReceiveShadows: 1
  m_DynamicOccludee: 1
  m_MotionVectors: 1
  m_LightProbeUsage: 1
  m_ReflectionProbeUsage: 1
  m_RenderingLayerMask: 1
  m_RendererPriority: 0
  m_Materials:
  - {fileID: 2100000, guid: 7d508bee10b74c641811ef3697cc149b, type: 2}
  m_StaticBatchInfo:
    firstSubMesh: 0
    subMeshCount: 0
  m_StaticBatchRoot: {fileID: 0}
  m_ProbeAnchor: {fileID: 0}
  m_LightProbeVolumeOverride: {fileID: 0}
  m_ScaleInLightmap: 1
  m_PreserveUVs: 0
  m_IgnoreNormalsForChartDetection: 0
  m_ImportantGI: 0
  m_StitchLightmapSeams: 0
  m_SelectedEditorRenderState: 3
  m_MinimumChartSize: 4
  m_AutoUVMaxDistance: 0.5
  m_AutoUVMaxAngle: 89
  m_LightmapParameters: {fileID: 0}
  m_SortingLayerID: 0
  m_SortingLayer: 0
  m_SortingOrder: 0
  serializedVersion: 2
  m_Quality: 0
  m_UpdateWhenOffscreen: 0
  m_SkinnedMotionVectors: 1
  m_Mesh: {fileID: 4300002, guid: 2073b67b18a7cf447a5d0f80c1531cba, type: 3}
  m_Bones:
  - {fileID: 4560423022380552}
  - {fileID: 4419524482057210}
  - {fileID: 4356992018479874}
  - {fileID: 4904547727862372}
  - {fileID: 4707238971664226}
  - {fileID: 4673779501750250}
  - {fileID: 4222611862627060}
  - {fileID: 4344853690642730}
  - {fileID: 4859317946184184}
  - {fileID: 4127514777884008}
  - {fileID: 4048988875961470}
  - {fileID: 4671722250273960}
  - {fileID: 4557269412691568}
  - {fileID: 4954584061374996}
  - {fileID: 4155198475602740}
  - {fileID: 4921945950761970}
  - {fileID: 4573322341927038}
  - {fileID: 4371863642231172}
  - {fileID: 4488393623511508}
  - {fileID: 4538874633327308}
  - {fileID: 4543980292542660}
  - {fileID: 4252190474597284}
  - {fileID: 4903679039060982}
  - {fileID: 4680134189982004}
  - {fileID: 4337790425054022}
  - {fileID: 4480204318675854}
  - {fileID: 4987027212912054}
  - {fileID: 4238395394338046}
  m_BlendShapeWeights: []
  m_RootBone: {fileID: 4560423022380552}
  m_AABB:
    m_Center: {x: 0.10066195, y: -0.0009509446, z: 0}
    m_Extent: {x: 0.14557974, y: 0.020237263, z: 0.6512639}
  m_DirtyAABB: 0
--- !u!1 &1503935077360202
GameObject:
  m_ObjectHideFlags: 0
  m_CorrespondingSourceObject: {fileID: 0}
  m_PrefabInstance: {fileID: 0}
  m_PrefabAsset: {fileID: 0}
  serializedVersion: 6
  m_Component:
  - component: {fileID: 4875372654984858}
  m_Layer: 29
  m_Name: Top_Bone
  m_TagString: Untagged
  m_Icon: {fileID: 0}
  m_NavMeshLayer: 0
  m_StaticEditorFlags: 0
  m_IsActive: 1
--- !u!4 &4875372654984858
Transform:
  m_ObjectHideFlags: 0
  m_CorrespondingSourceObject: {fileID: 0}
  m_PrefabInstance: {fileID: 0}
  m_PrefabAsset: {fileID: 0}
  m_GameObject: {fileID: 1503935077360202}
  m_LocalRotation: {x: 0.00000031321017, y: -0.7435338, z: -0.00000023340738, w: 0.6686984}
  m_LocalPosition: {x: -0, y: 0, z: 0}
  m_LocalScale: {x: 0.99999994, y: 1, z: 0.99999994}
  m_Children:
  - {fileID: 4018573782662570}
  m_Father: {fileID: 4068923628064324}
  m_RootOrder: 4
  m_LocalEulerAnglesHint: {x: 0, y: 0, z: 0}
--- !u!1 &1512150441703062
GameObject:
  m_ObjectHideFlags: 0
  m_CorrespondingSourceObject: {fileID: 0}
  m_PrefabInstance: {fileID: 0}
  m_PrefabAsset: {fileID: 0}
  serializedVersion: 6
  m_Component:
  - component: {fileID: 4943284473056476}
  m_Layer: 29
  m_Name: Top_Limit
  m_TagString: Untagged
  m_Icon: {fileID: 0}
  m_NavMeshLayer: 0
  m_StaticEditorFlags: 0
  m_IsActive: 1
--- !u!4 &4943284473056476
Transform:
  m_ObjectHideFlags: 0
  m_CorrespondingSourceObject: {fileID: 0}
  m_PrefabInstance: {fileID: 0}
  m_PrefabAsset: {fileID: 0}
  m_GameObject: {fileID: 1512150441703062}
  m_LocalRotation: {x: 0.00000007549788, y: 1, z: 0.00000043312576, w: 0.000000043709164}
  m_LocalPosition: {x: 0.20565885, y: 0.00000046956737, z: -0.5599923}
  m_LocalScale: {x: 1, y: 1, z: 1}
  m_Children: []
  m_Father: {fileID: 4068923628064324}
  m_RootOrder: 5
  m_LocalEulerAnglesHint: {x: 0, y: 0, z: 0}
--- !u!1 &1517572373749108
GameObject:
  m_ObjectHideFlags: 0
  m_CorrespondingSourceObject: {fileID: 0}
  m_PrefabInstance: {fileID: 0}
  m_PrefabAsset: {fileID: 0}
  serializedVersion: 6
  m_Component:
  - component: {fileID: 4127514777884008}
  m_Layer: 30
  m_Name: Top_Bone8
  m_TagString: Untagged
  m_Icon: {fileID: 0}
  m_NavMeshLayer: 0
  m_StaticEditorFlags: 0
  m_IsActive: 1
--- !u!4 &4127514777884008
Transform:
  m_ObjectHideFlags: 0
  m_CorrespondingSourceObject: {fileID: 0}
  m_PrefabInstance: {fileID: 0}
  m_PrefabAsset: {fileID: 0}
  m_GameObject: {fileID: 1517572373749108}
  m_LocalRotation: {x: 0.00000012299566, y: 0.052313473, z: -0.000000006236249, w: 0.99863076}
  m_LocalPosition: {x: -0.045106053, y: 0.000000003405407, z: 0.000000014901161}
  m_LocalScale: {x: 1, y: 1, z: 1}
  m_Children:
  - {fileID: 4048988875961470}
  m_Father: {fileID: 4859317946184184}
  m_RootOrder: 0
  m_LocalEulerAnglesHint: {x: 0, y: 0, z: 0}
--- !u!1 &1533538819169596
GameObject:
  m_ObjectHideFlags: 0
  m_CorrespondingSourceObject: {fileID: 0}
  m_PrefabInstance: {fileID: 0}
  m_PrefabAsset: {fileID: 0}
  serializedVersion: 6
  m_Component:
  - component: {fileID: 4337790425054022}
  m_Layer: 30
  m_Name: String
  m_TagString: Untagged
  m_Icon: {fileID: 0}
  m_NavMeshLayer: 0
  m_StaticEditorFlags: 0
  m_IsActive: 1
--- !u!4 &4337790425054022
Transform:
  m_ObjectHideFlags: 0
  m_CorrespondingSourceObject: {fileID: 0}
  m_PrefabInstance: {fileID: 0}
  m_PrefabAsset: {fileID: 0}
  m_GameObject: {fileID: 1533538819169596}
  m_LocalRotation: {x: 0.00000011098787, y: 0.70710593, z: 0.7071076, w: -0.000000004214388}
  m_LocalPosition: {x: 0.20142913, y: 0.000000007376897, z: 2e-14}
  m_LocalScale: {x: 1, y: 1, z: 1}
  m_Children:
  - {fileID: 4513195549490814}
  m_Father: {fileID: 4560423022380552}
  m_RootOrder: 3
  m_LocalEulerAnglesHint: {x: 0, y: 0, z: 0}
--- !u!1 &1540453889212604
GameObject:
  m_ObjectHideFlags: 0
  m_CorrespondingSourceObject: {fileID: 0}
  m_PrefabInstance: {fileID: 0}
  m_PrefabAsset: {fileID: 0}
  serializedVersion: 6
  m_Component:
  - component: {fileID: 4419524482057210}
  m_Layer: 30
  m_Name: Top_Bone
  m_TagString: Untagged
  m_Icon: {fileID: 0}
  m_NavMeshLayer: 0
  m_StaticEditorFlags: 0
  m_IsActive: 1
--- !u!4 &4419524482057210
Transform:
  m_ObjectHideFlags: 0
  m_CorrespondingSourceObject: {fileID: 0}
  m_PrefabInstance: {fileID: 0}
  m_PrefabAsset: {fileID: 0}
  m_GameObject: {fileID: 1540453889212604}
  m_LocalRotation: {x: 0.00000031321017, y: -0.7435338, z: -0.00000023340738, w: 0.6686984}
  m_LocalPosition: {x: -0, y: 0, z: 0}
  m_LocalScale: {x: 0.99999994, y: 1, z: 0.99999994}
  m_Children:
  - {fileID: 4356992018479874}
  m_Father: {fileID: 4560423022380552}
  m_RootOrder: 4
  m_LocalEulerAnglesHint: {x: 0, y: 0, z: 0}
--- !u!1 &1542614168149516
GameObject:
  m_ObjectHideFlags: 0
  m_CorrespondingSourceObject: {fileID: 0}
  m_PrefabInstance: {fileID: 0}
  m_PrefabAsset: {fileID: 0}
  serializedVersion: 6
  m_Component:
  - component: {fileID: 4673779501750250}
  m_Layer: 30
  m_Name: Top_Bone4
  m_TagString: Untagged
  m_Icon: {fileID: 0}
  m_NavMeshLayer: 0
  m_StaticEditorFlags: 0
  m_IsActive: 1
--- !u!4 &4673779501750250
Transform:
  m_ObjectHideFlags: 0
  m_CorrespondingSourceObject: {fileID: 0}
  m_PrefabInstance: {fileID: 0}
  m_PrefabAsset: {fileID: 0}
  m_GameObject: {fileID: 1542614168149516}
  m_LocalRotation: {x: 0.00000023773231, y: -0.008962737, z: -6.429126e-15, w: 0.9999598}
  m_LocalPosition: {x: -0.042099044, y: 0.000000003178393, z: 0}
  m_LocalScale: {x: 1, y: 1, z: 1}
  m_Children:
  - {fileID: 4222611862627060}
  m_Father: {fileID: 4707238971664226}
  m_RootOrder: 0
  m_LocalEulerAnglesHint: {x: 0, y: 0, z: 0}
--- !u!1 &1575874182481160
GameObject:
  m_ObjectHideFlags: 0
  m_CorrespondingSourceObject: {fileID: 0}
  m_PrefabInstance: {fileID: 0}
  m_PrefabAsset: {fileID: 0}
  serializedVersion: 6
  m_Component:
  - component: {fileID: 4560423022380552}
  m_Layer: 30
  m_Name: Main
  m_TagString: Untagged
  m_Icon: {fileID: 0}
  m_NavMeshLayer: 0
  m_StaticEditorFlags: 0
  m_IsActive: 1
--- !u!4 &4560423022380552
Transform:
  m_ObjectHideFlags: 0
  m_CorrespondingSourceObject: {fileID: 0}
  m_PrefabInstance: {fileID: 0}
  m_PrefabAsset: {fileID: 0}
  m_GameObject: {fileID: 1575874182481160}
  m_LocalRotation: {x: 0.7071068, y: 0.7071067, z: 0.00000030626776, w: 0.00000030626776}
  m_LocalPosition: {x: -0, y: 0, z: 0}
  m_LocalScale: {x: 1, y: 1, z: 1}
  m_Children:
  - {fileID: 4155198475602740}
  - {fileID: 4480204318675854}
  - {fileID: 4987027212912054}
  - {fileID: 4337790425054022}
  - {fileID: 4419524482057210}
  - {fileID: 4954584061374996}
  - {fileID: 4671722250273960}
  m_Father: {fileID: 4750421707207866}
  m_RootOrder: 0
  m_LocalEulerAnglesHint: {x: 0, y: 0, z: 0}
--- !u!1 &1581728639727386
GameObject:
  m_ObjectHideFlags: 0
  m_CorrespondingSourceObject: {fileID: 0}
  m_PrefabInstance: {fileID: 0}
  m_PrefabAsset: {fileID: 0}
  serializedVersion: 6
  m_Component:
  - component: {fileID: 4676967359179930}
  m_Layer: 29
  m_Name: Bottom_Bone2
  m_TagString: Untagged
  m_Icon: {fileID: 0}
  m_NavMeshLayer: 0
  m_StaticEditorFlags: 0
  m_IsActive: 1
--- !u!4 &4676967359179930
Transform:
  m_ObjectHideFlags: 0
  m_CorrespondingSourceObject: {fileID: 0}
  m_PrefabInstance: {fileID: 0}
  m_PrefabAsset: {fileID: 0}
  m_GameObject: {fileID: 1581728639727386}
  m_LocalRotation: {x: 0.0000000031182983, y: 0.041303016, z: -5.9956854e-15, w: 0.9991467}
  m_LocalPosition: {x: -0.053405996, y: 0.000000004032039, z: 0}
  m_LocalScale: {x: 1.0000001, y: 1, z: 1}
  m_Children:
  - {fileID: 4550479972411232}
  m_Father: {fileID: 4558777259922752}
  m_RootOrder: 0
  m_LocalEulerAnglesHint: {x: 0, y: 0, z: 0}
--- !u!1 &1584947859009586
GameObject:
  m_ObjectHideFlags: 0
  m_CorrespondingSourceObject: {fileID: 0}
  m_PrefabInstance: {fileID: 0}
  m_PrefabAsset: {fileID: 0}
  serializedVersion: 6
  m_Component:
  - component: {fileID: 4488393623511508}
  m_Layer: 30
  m_Name: Bottom_Bone4
  m_TagString: Untagged
  m_Icon: {fileID: 0}
  m_NavMeshLayer: 0
  m_StaticEditorFlags: 0
  m_IsActive: 1
--- !u!4 &4488393623511508
Transform:
  m_ObjectHideFlags: 0
  m_CorrespondingSourceObject: {fileID: 0}
  m_PrefabInstance: {fileID: 0}
  m_PrefabAsset: {fileID: 0}
  m_GameObject: {fileID: 1584947859009586}
  m_LocalRotation: {x: 0.0000002390856, y: 0.008962737, z: -1.6595798e-15, w: 0.9999598}
  m_LocalPosition: {x: -0.042099044, y: 0.000000003178386, z: 0}
  m_LocalScale: {x: 1, y: 1, z: 1}
  m_Children:
  - {fileID: 4538874633327308}
  m_Father: {fileID: 4371863642231172}
  m_RootOrder: 0
  m_LocalEulerAnglesHint: {x: 0, y: 0, z: 0}
--- !u!1 &1590812120697202
GameObject:
  m_ObjectHideFlags: 0
  m_CorrespondingSourceObject: {fileID: 0}
  m_PrefabInstance: {fileID: 0}
  m_PrefabAsset: {fileID: 0}
  serializedVersion: 6
  m_Component:
  - component: {fileID: 4557269412691568}
  m_Layer: 30
  m_Name: Top_IK
  m_TagString: Untagged
  m_Icon: {fileID: 0}
  m_NavMeshLayer: 0
  m_StaticEditorFlags: 0
  m_IsActive: 1
--- !u!4 &4557269412691568
Transform:
  m_ObjectHideFlags: 0
  m_CorrespondingSourceObject: {fileID: 0}
  m_PrefabInstance: {fileID: 0}
  m_PrefabAsset: {fileID: 0}
  m_GameObject: {fileID: 1590812120697202}
  m_LocalRotation: {x: -0.00000014110556, y: -0.53594977, z: 0.00000006389016, w: 0.84424984}
  m_LocalPosition: {x: -0.38126567, y: 0.00000002878475, z: 0}
  m_LocalScale: {x: 0.99999994, y: 1, z: 1}
  m_Children: []
  m_Father: {fileID: 4671722250273960}
  m_RootOrder: 0
  m_LocalEulerAnglesHint: {x: 0, y: 0, z: 0}
--- !u!1 &1609041214800120
GameObject:
  m_ObjectHideFlags: 0
  m_CorrespondingSourceObject: {fileID: 0}
  m_PrefabInstance: {fileID: 0}
  m_PrefabAsset: {fileID: 0}
  serializedVersion: 6
  m_Component:
  - component: {fileID: 4954584061374996}
  m_Layer: 30
  m_Name: Top_Limit
  m_TagString: Untagged
  m_Icon: {fileID: 0}
  m_NavMeshLayer: 0
  m_StaticEditorFlags: 0
  m_IsActive: 1
--- !u!4 &4954584061374996
Transform:
  m_ObjectHideFlags: 0
  m_CorrespondingSourceObject: {fileID: 0}
  m_PrefabInstance: {fileID: 0}
  m_PrefabAsset: {fileID: 0}
  m_GameObject: {fileID: 1609041214800120}
  m_LocalRotation: {x: 0.00000007549788, y: 1, z: 0.00000043312576, w: 0.000000043709164}
  m_LocalPosition: {x: 0.20565885, y: 0.00000046956737, z: -0.5599923}
  m_LocalScale: {x: 1, y: 1, z: 1}
  m_Children: []
  m_Father: {fileID: 4560423022380552}
  m_RootOrder: 5
  m_LocalEulerAnglesHint: {x: 0, y: 0, z: 0}
--- !u!1 &1611815583793378
GameObject:
  m_ObjectHideFlags: 0
  m_CorrespondingSourceObject: {fileID: 0}
  m_PrefabInstance: {fileID: 0}
  m_PrefabAsset: {fileID: 0}
  serializedVersion: 6
  m_Component:
  - component: {fileID: 4732546666129520}
  - component: {fileID: 137753800412771858}
  m_Layer: 29
  m_Name: Bow
  m_TagString: Untagged
  m_Icon: {fileID: 0}
  m_NavMeshLayer: 0
  m_StaticEditorFlags: 0
  m_IsActive: 1
--- !u!4 &4732546666129520
Transform:
  m_ObjectHideFlags: 0
  m_CorrespondingSourceObject: {fileID: 0}
  m_PrefabInstance: {fileID: 0}
  m_PrefabAsset: {fileID: 0}
  m_GameObject: {fileID: 1611815583793378}
  m_LocalRotation: {x: 0, y: -0, z: -0, w: 1}
  m_LocalPosition: {x: -0, y: 0, z: 0}
  m_LocalScale: {x: 1, y: 1, z: 1}
  m_Children: []
  m_Father: {fileID: 4653453742997424}
  m_RootOrder: 0
  m_LocalEulerAnglesHint: {x: 0, y: 0, z: 0}
--- !u!137 &137753800412771858
SkinnedMeshRenderer:
  m_ObjectHideFlags: 0
  m_CorrespondingSourceObject: {fileID: 0}
  m_PrefabInstance: {fileID: 0}
  m_PrefabAsset: {fileID: 0}
  m_GameObject: {fileID: 1611815583793378}
  m_Enabled: 1
  m_CastShadows: 1
  m_ReceiveShadows: 1
  m_DynamicOccludee: 1
  m_MotionVectors: 1
  m_LightProbeUsage: 1
  m_ReflectionProbeUsage: 1
  m_RenderingLayerMask: 1
  m_RendererPriority: 0
  m_Materials:
  - {fileID: 2100000, guid: 7d508bee10b74c641811ef3697cc149b, type: 2}
  m_StaticBatchInfo:
    firstSubMesh: 0
    subMeshCount: 0
  m_StaticBatchRoot: {fileID: 0}
  m_ProbeAnchor: {fileID: 0}
  m_LightProbeVolumeOverride: {fileID: 0}
  m_ScaleInLightmap: 1
  m_PreserveUVs: 0
  m_IgnoreNormalsForChartDetection: 0
  m_ImportantGI: 0
  m_StitchLightmapSeams: 0
  m_SelectedEditorRenderState: 3
  m_MinimumChartSize: 4
  m_AutoUVMaxDistance: 0.5
  m_AutoUVMaxAngle: 89
  m_LightmapParameters: {fileID: 0}
  m_SortingLayerID: 0
  m_SortingLayer: 0
  m_SortingOrder: 0
  serializedVersion: 2
  m_Quality: 0
  m_UpdateWhenOffscreen: 0
  m_SkinnedMotionVectors: 1
  m_Mesh: {fileID: 4300002, guid: 2073b67b18a7cf447a5d0f80c1531cba, type: 3}
  m_Bones:
  - {fileID: 4068923628064324}
  - {fileID: 4875372654984858}
  - {fileID: 4018573782662570}
  - {fileID: 4419857593908308}
  - {fileID: 4913895747245240}
  - {fileID: 4621105645244988}
  - {fileID: 4266087156349474}
  - {fileID: 4093541626654792}
  - {fileID: 4199295885085152}
  - {fileID: 4799375473425052}
  - {fileID: 4542341492392632}
  - {fileID: 4262613252438076}
  - {fileID: 4914118757860392}
  - {fileID: 4943284473056476}
  - {fileID: 4778678198237118}
  - {fileID: 4558777259922752}
  - {fileID: 4676967359179930}
  - {fileID: 4550479972411232}
  - {fileID: 4487537488583048}
  - {fileID: 4417878029323486}
  - {fileID: 4156584278301634}
  - {fileID: 4400639019808970}
  - {fileID: 4164691218828950}
  - {fileID: 4646082627612998}
  - {fileID: 4462058315482612}
  - {fileID: 4885854470596956}
  - {fileID: 4289480986675342}
  - {fileID: 4357614018608114}
  m_BlendShapeWeights: []
  m_RootBone: {fileID: 4068923628064324}
  m_AABB:
    m_Center: {x: 0.10066195, y: -0.0009509446, z: 0}
    m_Extent: {x: 0.14557974, y: 0.020237263, z: 0.6512639}
  m_DirtyAABB: 0
--- !u!1 &1640423160156880
GameObject:
  m_ObjectHideFlags: 0
  m_CorrespondingSourceObject: {fileID: 0}
  m_PrefabInstance: {fileID: 0}
  m_PrefabAsset: {fileID: 0}
  serializedVersion: 6
  m_Component:
  - component: {fileID: 4538874633327308}
  m_Layer: 30
  m_Name: Bottom_Bone5
  m_TagString: Untagged
  m_Icon: {fileID: 0}
  m_NavMeshLayer: 0
  m_StaticEditorFlags: 0
  m_IsActive: 1
--- !u!4 &4538874633327308
Transform:
  m_ObjectHideFlags: 0
  m_CorrespondingSourceObject: {fileID: 0}
  m_PrefabInstance: {fileID: 0}
  m_PrefabAsset: {fileID: 0}
  m_GameObject: {fileID: 1640423160156880}
  m_LocalRotation: {x: -0.00000023662588, y: 0.022915578, z: -1.3829322e-15, w: 0.99973744}
  m_LocalPosition: {x: -0.04295731, y: 0.000000003243188, z: -0.000000014901161}
  m_LocalScale: {x: 1, y: 1, z: 1}
  m_Children:
  - {fileID: 4543980292542660}
  m_Father: {fileID: 4488393623511508}
  m_RootOrder: 0
  m_LocalEulerAnglesHint: {x: 0, y: 0, z: 0}
--- !u!1 &1670329941305608
GameObject:
  m_ObjectHideFlags: 0
  m_CorrespondingSourceObject: {fileID: 0}
  m_PrefabInstance: {fileID: 0}
  m_PrefabAsset: {fileID: 0}
  serializedVersion: 6
  m_Component:
  - component: {fileID: 4222611862627060}
  m_Layer: 30
  m_Name: Top_Bone5
  m_TagString: Untagged
  m_Icon: {fileID: 0}
  m_NavMeshLayer: 0
  m_StaticEditorFlags: 0
  m_IsActive: 1
--- !u!4 &4222611862627060
Transform:
  m_ObjectHideFlags: 0
  m_CorrespondingSourceObject: {fileID: 0}
  m_PrefabInstance: {fileID: 0}
  m_PrefabAsset: {fileID: 0}
  m_GameObject: {fileID: 1670329941305608}
  m_LocalRotation: {x: -0.00000024008608, y: -0.022915578, z: -3.5346655e-15, w: 0.99973744}
  m_LocalPosition: {x: -0.04295731, y: 0.000000003243189, z: 0.000000014901161}
  m_LocalScale: {x: 1, y: 1, z: 1}
  m_Children:
  - {fileID: 4344853690642730}
  m_Father: {fileID: 4673779501750250}
  m_RootOrder: 0
  m_LocalEulerAnglesHint: {x: 0, y: 0, z: 0}
--- !u!1 &1682221576126352
GameObject:
  m_ObjectHideFlags: 0
  m_CorrespondingSourceObject: {fileID: 0}
  m_PrefabInstance: {fileID: 0}
  m_PrefabAsset: {fileID: 0}
  serializedVersion: 6
  m_Component:
  - component: {fileID: 4357614018608114}
  m_Layer: 29
  m_Name: Bottom_IK
  m_TagString: Untagged
  m_Icon: {fileID: 0}
  m_NavMeshLayer: 0
  m_StaticEditorFlags: 0
  m_IsActive: 1
--- !u!4 &4357614018608114
Transform:
  m_ObjectHideFlags: 0
  m_CorrespondingSourceObject: {fileID: 0}
  m_PrefabInstance: {fileID: 0}
  m_PrefabAsset: {fileID: 0}
  m_GameObject: {fileID: 1682221576126352}
  m_LocalRotation: {x: -0.000000060179396, y: 0.53594977, z: -0.00000006389015, w: 0.84424984}
  m_LocalPosition: {x: -0.38126567, y: 0.000000028784754, z: 0}
  m_LocalScale: {x: 0.99999994, y: 1, z: 1}
  m_Children: []
  m_Father: {fileID: 4289480986675342}
  m_RootOrder: 0
  m_LocalEulerAnglesHint: {x: 0, y: 0, z: 0}
--- !u!1 &1684796428387196
GameObject:
  m_ObjectHideFlags: 0
  m_CorrespondingSourceObject: {fileID: 0}
  m_PrefabInstance: {fileID: 0}
  m_PrefabAsset: {fileID: 0}
  serializedVersion: 6
  m_Component:
  - component: {fileID: 4558777259922752}
  m_Layer: 29
  m_Name: Bottom_Bone1
  m_TagString: Untagged
  m_Icon: {fileID: 0}
  m_NavMeshLayer: 0
  m_StaticEditorFlags: 0
  m_IsActive: 1
--- !u!4 &4558777259922752
Transform:
  m_ObjectHideFlags: 0
  m_CorrespondingSourceObject: {fileID: 0}
  m_PrefabInstance: {fileID: 0}
  m_PrefabAsset: {fileID: 0}
  m_GameObject: {fileID: 1684796428387196}
  m_LocalRotation: {x: -0.00000010895098, y: 0.12373943, z: -0.000000014750868, w: 0.99231476}
  m_LocalPosition: {x: -0.20983194, y: 0.00000001584187, z: -0.000000001862645}
  m_LocalScale: {x: 1, y: 1, z: 1}
  m_Children:
  - {fileID: 4676967359179930}
  m_Father: {fileID: 4778678198237118}
  m_RootOrder: 0
  m_LocalEulerAnglesHint: {x: 0, y: 0, z: 0}
--- !u!1 &1713900775003260
GameObject:
  m_ObjectHideFlags: 0
  m_CorrespondingSourceObject: {fileID: 0}
  m_PrefabInstance: {fileID: 0}
  m_PrefabAsset: {fileID: 0}
  serializedVersion: 6
  m_Component:
  - component: {fileID: 4091839401978056}
  - component: {fileID: 95979566868706150}
  - component: {fileID: 114830576100080480}
  - component: {fileID: 82539057627979862}
  - component: {fileID: 114384711353893966}
  m_Layer: 30
  m_Name: Third Person Bow
  m_TagString: Untagged
  m_Icon: {fileID: 0}
  m_NavMeshLayer: 0
  m_StaticEditorFlags: 0
  m_IsActive: 1
--- !u!4 &4091839401978056
Transform:
  m_ObjectHideFlags: 0
  m_CorrespondingSourceObject: {fileID: 0}
  m_PrefabInstance: {fileID: 0}
  m_PrefabAsset: {fileID: 0}
  m_GameObject: {fileID: 1713900775003260}
  m_LocalRotation: {x: 0, y: 0, z: 0, w: 1}
  m_LocalPosition: {x: 0, y: 0, z: 0}
  m_LocalScale: {x: 1, y: 1, z: 1}
  m_Children:
  - {fileID: 4073965119125364}
  - {fileID: 4750421707207866}
  m_Father: {fileID: 4571403375465286}
  m_RootOrder: 1
  m_LocalEulerAnglesHint: {x: 0, y: 0, z: 0}
--- !u!95 &95979566868706150
Animator:
  serializedVersion: 3
  m_ObjectHideFlags: 0
  m_CorrespondingSourceObject: {fileID: 0}
  m_PrefabInstance: {fileID: 0}
  m_PrefabAsset: {fileID: 0}
  m_GameObject: {fileID: 1713900775003260}
  m_Enabled: 1
  m_Avatar: {fileID: 9000000, guid: 2073b67b18a7cf447a5d0f80c1531cba, type: 3}
  m_Controller: {fileID: 9100000, guid: 236dad69c266a0346b5dde1ce4ee4a27, type: 2}
  m_CullingMode: 1
  m_UpdateMode: 0
  m_ApplyRootMotion: 0
  m_LinearVelocityBlending: 0
  m_WarningMessage: 
  m_HasTransformHierarchy: 1
  m_AllowConstantClipSamplingOptimization: 1
  m_KeepAnimatorControllerStateOnDisable: 0
--- !u!114 &114830576100080480
MonoBehaviour:
  m_ObjectHideFlags: 0
  m_CorrespondingSourceObject: {fileID: 0}
  m_PrefabInstance: {fileID: 0}
  m_PrefabAsset: {fileID: 0}
  m_GameObject: {fileID: 1713900775003260}
  m_Enabled: 1
  m_EditorHideFlags: 0
  m_Script: {fileID: 11500000, guid: edead2b42b914a84faf341ae0d10c805, type: 3}
  m_Name: 
  m_EditorClassIdentifier: 
  m_States:
  - m_Name: Default
    m_Preset: {fileID: 0}
    m_BlockList: []
    m_Default: 1
  m_ForceVisible: 0
  m_FirstPersonVisibleOnDeath: 0
--- !u!82 &82539057627979862
AudioSource:
  m_ObjectHideFlags: 0
  m_CorrespondingSourceObject: {fileID: 0}
  m_PrefabInstance: {fileID: 0}
  m_PrefabAsset: {fileID: 0}
  m_GameObject: {fileID: 1713900775003260}
  m_Enabled: 1
  serializedVersion: 4
  OutputAudioMixerGroup: {fileID: 0}
  m_audioClip: {fileID: 0}
  m_PlayOnAwake: 1
  m_Volume: 1
  m_Pitch: 1
  Loop: 0
  Mute: 0
  Spatialize: 0
  SpatializePostEffects: 0
  Priority: 128
  DopplerLevel: 1
  MinDistance: 1
  MaxDistance: 500
  Pan2D: 0
  rolloffMode: 0
  BypassEffects: 0
  BypassListenerEffects: 0
  BypassReverbZones: 0
  rolloffCustomCurve:
    serializedVersion: 2
    m_Curve:
    - serializedVersion: 3
      time: 0
      value: 1
      inSlope: 0
      outSlope: 0
      tangentMode: 0
      weightedMode: 0
      inWeight: 0.33333334
      outWeight: 0.33333334
    - serializedVersion: 3
      time: 1
      value: 0
      inSlope: 0
      outSlope: 0
      tangentMode: 0
      weightedMode: 0
      inWeight: 0.33333334
      outWeight: 0.33333334
    m_PreInfinity: 2
    m_PostInfinity: 2
    m_RotationOrder: 4
  panLevelCustomCurve:
    serializedVersion: 2
    m_Curve:
    - serializedVersion: 3
      time: 0
      value: 0
      inSlope: 0
      outSlope: 0
      tangentMode: 0
      weightedMode: 0
      inWeight: 0.33333334
      outWeight: 0.33333334
    m_PreInfinity: 2
    m_PostInfinity: 2
    m_RotationOrder: 0
  spreadCustomCurve:
    serializedVersion: 2
    m_Curve:
    - serializedVersion: 3
      time: 0
      value: 0
      inSlope: 0
      outSlope: 0
      tangentMode: 0
      weightedMode: 0
      inWeight: 0.33333334
      outWeight: 0.33333334
    m_PreInfinity: 2
    m_PostInfinity: 2
    m_RotationOrder: 4
  reverbZoneMixCustomCurve:
    serializedVersion: 2
    m_Curve:
    - serializedVersion: 3
      time: 0
      value: 1
      inSlope: 0
      outSlope: 0
      tangentMode: 0
      weightedMode: 0
      inWeight: 0.33333334
      outWeight: 0.33333334
    m_PreInfinity: 2
    m_PostInfinity: 2
    m_RotationOrder: 0
--- !u!114 &114384711353893966
MonoBehaviour:
  m_ObjectHideFlags: 0
  m_CorrespondingSourceObject: {fileID: 0}
  m_PrefabInstance: {fileID: 0}
  m_PrefabAsset: {fileID: 0}
  m_GameObject: {fileID: 1713900775003260}
  m_Enabled: 1
  m_EditorHideFlags: 0
  m_Script: {fileID: 11500000, guid: 527b6ce4c43b6dd458111a6670a3de65, type: 3}
  m_Name: 
  m_EditorClassIdentifier: 
--- !u!1 &1758660305646966
GameObject:
  m_ObjectHideFlags: 0
  m_CorrespondingSourceObject: {fileID: 0}
  m_PrefabInstance: {fileID: 0}
  m_PrefabAsset: {fileID: 0}
  serializedVersion: 6
  m_Component:
  - component: {fileID: 4238395394338046}
  m_Layer: 30
  m_Name: Bottom_IK
  m_TagString: Untagged
  m_Icon: {fileID: 0}
  m_NavMeshLayer: 0
  m_StaticEditorFlags: 0
  m_IsActive: 1
--- !u!4 &4238395394338046
Transform:
  m_ObjectHideFlags: 0
  m_CorrespondingSourceObject: {fileID: 0}
  m_PrefabInstance: {fileID: 0}
  m_PrefabAsset: {fileID: 0}
  m_GameObject: {fileID: 1758660305646966}
  m_LocalRotation: {x: -0.000000060179396, y: 0.53594977, z: -0.00000006389015, w: 0.84424984}
  m_LocalPosition: {x: -0.38126567, y: 0.000000028784754, z: 0}
  m_LocalScale: {x: 0.99999994, y: 1, z: 1}
  m_Children: []
  m_Father: {fileID: 4987027212912054}
  m_RootOrder: 0
  m_LocalEulerAnglesHint: {x: 0, y: 0, z: 0}
--- !u!1 &1759423783849968
GameObject:
  m_ObjectHideFlags: 0
  m_CorrespondingSourceObject: {fileID: 0}
  m_PrefabInstance: {fileID: 0}
  m_PrefabAsset: {fileID: 0}
  serializedVersion: 6
  m_Component:
  - component: {fileID: 4093541626654792}
  m_Layer: 29
  m_Name: Top_Bone6
  m_TagString: Untagged
  m_Icon: {fileID: 0}
  m_NavMeshLayer: 0
  m_StaticEditorFlags: 0
  m_IsActive: 1
--- !u!4 &4093541626654792
Transform:
  m_ObjectHideFlags: 0
  m_CorrespondingSourceObject: {fileID: 0}
  m_PrefabInstance: {fileID: 0}
  m_PrefabAsset: {fileID: 0}
  m_GameObject: {fileID: 1759423783849968}
  m_LocalRotation: {x: 0.00000023867224, y: 0.0033772485, z: -1.8445703e-15, w: 0.99999434}
  m_LocalPosition: {x: -0.038562216, y: 0.000000002911366, z: 0.000000007450581}
  m_LocalScale: {x: 0.99999994, y: 1, z: 0.99999994}
  m_Children:
  - {fileID: 4199295885085152}
  m_Father: {fileID: 4266087156349474}
  m_RootOrder: 0
  m_LocalEulerAnglesHint: {x: 0, y: 0, z: 0}
--- !u!1 &1770377634481390
GameObject:
  m_ObjectHideFlags: 0
  m_CorrespondingSourceObject: {fileID: 0}
  m_PrefabInstance: {fileID: 0}
  m_PrefabAsset: {fileID: 0}
  serializedVersion: 6
  m_Component:
  - component: {fileID: 4778678198237118}
  m_Layer: 29
  m_Name: Bottom_Bone
  m_TagString: Untagged
  m_Icon: {fileID: 0}
  m_NavMeshLayer: 0
  m_StaticEditorFlags: 0
  m_IsActive: 1
--- !u!4 &4778678198237118
Transform:
  m_ObjectHideFlags: 0
  m_CorrespondingSourceObject: {fileID: 0}
  m_PrefabInstance: {fileID: 0}
  m_PrefabAsset: {fileID: 0}
  m_GameObject: {fileID: 1770377634481390}
  m_LocalRotation: {x: 0.00000042548024, y: 0.7435338, z: 0.00000023340777, w: 0.6686984}
  m_LocalPosition: {x: -0, y: 0, z: 0}
  m_LocalScale: {x: 0.99999994, y: 1, z: 0.99999994}
  m_Children:
  - {fileID: 4558777259922752}
  m_Father: {fileID: 4068923628064324}
  m_RootOrder: 0
  m_LocalEulerAnglesHint: {x: 0, y: 0, z: 0}
--- !u!1 &1779210336700408
GameObject:
  m_ObjectHideFlags: 0
  m_CorrespondingSourceObject: {fileID: 0}
  m_PrefabInstance: {fileID: 0}
  m_PrefabAsset: {fileID: 0}
  serializedVersion: 6
  m_Component:
  - component: {fileID: 4155198475602740}
  m_Layer: 30
  m_Name: Bottom_Bone
  m_TagString: Untagged
  m_Icon: {fileID: 0}
  m_NavMeshLayer: 0
  m_StaticEditorFlags: 0
  m_IsActive: 1
--- !u!4 &4155198475602740
Transform:
  m_ObjectHideFlags: 0
  m_CorrespondingSourceObject: {fileID: 0}
  m_PrefabInstance: {fileID: 0}
  m_PrefabAsset: {fileID: 0}
  m_GameObject: {fileID: 1779210336700408}
  m_LocalRotation: {x: 0.00000042548024, y: 0.7435338, z: 0.00000023340777, w: 0.6686984}
  m_LocalPosition: {x: -0, y: 0, z: 0}
  m_LocalScale: {x: 0.99999994, y: 1, z: 0.99999994}
  m_Children:
  - {fileID: 4921945950761970}
  m_Father: {fileID: 4560423022380552}
  m_RootOrder: 0
  m_LocalEulerAnglesHint: {x: 0, y: 0, z: 0}
--- !u!1 &1802284058589198
GameObject:
  m_ObjectHideFlags: 0
  m_CorrespondingSourceObject: {fileID: 0}
  m_PrefabInstance: {fileID: 0}
  m_PrefabAsset: {fileID: 0}
  serializedVersion: 6
  m_Component:
  - component: {fileID: 4913895747245240}
  m_Layer: 29
  m_Name: Top_Bone3
  m_TagString: Untagged
  m_Icon: {fileID: 0}
  m_NavMeshLayer: 0
  m_StaticEditorFlags: 0
  m_IsActive: 1
--- !u!4 &4913895747245240
Transform:
  m_ObjectHideFlags: 0
  m_CorrespondingSourceObject: {fileID: 0}
  m_PrefabInstance: {fileID: 0}
  m_PrefabAsset: {fileID: 0}
  m_GameObject: {fileID: 1802284058589198}
  m_LocalRotation: {x: -0.00000012203299, y: -0.038576182, z: -0.00000000459864, w: 0.99925566}
  m_LocalPosition: {x: -0.048070267, y: 0.000000003629206, z: 0.00000000372529}
  m_LocalScale: {x: 1.0000001, y: 1, z: 1.0000001}
  m_Children:
  - {fileID: 4621105645244988}
  m_Father: {fileID: 4419857593908308}
  m_RootOrder: 0
  m_LocalEulerAnglesHint: {x: 0, y: 0, z: 0}
--- !u!1 &1834043069192340
GameObject:
  m_ObjectHideFlags: 0
  m_CorrespondingSourceObject: {fileID: 0}
  m_PrefabInstance: {fileID: 0}
  m_PrefabAsset: {fileID: 0}
  serializedVersion: 6
  m_Component:
  - component: {fileID: 4571403375465286}
  - component: {fileID: 114359913943424414}
  - component: {fileID: 114973745923523750}
  - component: {fileID: 114212549968636176}
  - component: {fileID: 114321792619531958}
  - component: {fileID: 114885762501425736}
  - component: {fileID: 114393777696599992}
  m_Layer: 0
  m_Name: Bow
  m_TagString: Untagged
  m_Icon: {fileID: 0}
  m_NavMeshLayer: 0
  m_StaticEditorFlags: 0
  m_IsActive: 1
--- !u!4 &4571403375465286
Transform:
  m_ObjectHideFlags: 0
  m_CorrespondingSourceObject: {fileID: 0}
  m_PrefabInstance: {fileID: 0}
  m_PrefabAsset: {fileID: 0}
  m_GameObject: {fileID: 1834043069192340}
  m_LocalRotation: {x: 0, y: 0, z: 0, w: 1}
  m_LocalPosition: {x: 0, y: 0, z: 0}
  m_LocalScale: {x: 1, y: 1, z: 1}
  m_Children:
  - {fileID: 4653453742997424}
  - {fileID: 4091839401978056}
  m_Father: {fileID: 0}
  m_RootOrder: 0
  m_LocalEulerAnglesHint: {x: 0, y: 0, z: 0}
--- !u!114 &114359913943424414
MonoBehaviour:
  m_ObjectHideFlags: 0
  m_CorrespondingSourceObject: {fileID: 0}
  m_PrefabInstance: {fileID: 0}
  m_PrefabAsset: {fileID: 0}
  m_GameObject: {fileID: 1834043069192340}
  m_Enabled: 1
  m_EditorHideFlags: 0
  m_Script: {fileID: 11500000, guid: e73d2e6c883c6804c87c5da983c35d7e, type: 3}
  m_Name: 
  m_EditorClassIdentifier: 
  m_States:
  - m_Name: Death
    m_Preset: {fileID: 11400000, guid: 5a172a2319fad0a43bde65272c92977e, type: 2}
    m_BlockList: []
    m_Default: 0
  - m_Name: FirstPerson
    m_Preset: {fileID: 11400000, guid: 50a5f74ba80091b47954d1f678ac7823, type: 2}
    m_BlockList: []
    m_Default: 0
  - m_Name: Default
    m_Preset: {fileID: 0}
    m_BlockList: []
    m_Default: 1
  m_ItemDefinition: {fileID: 114971095791176372, guid: 5481010ef14c32f4cb7b6661b0c59fb4,
    type: 2}
  m_SlotID: 1
  m_AnimatorItemID: 4
  m_AnimatorMovementSetID: 2
  m_DominantItem: 1
  m_UniqueItemSet: 1
  m_AllowCameraZoom: 1
  m_DropPrefab: {fileID: 1419454207511548, guid: 1f29c326cd986de4691336fbaf924bab,
    type: 3}
  m_DropVelocityMultiplier: 4
  m_EquipEvent:
    m_WaitForAnimationEvent: 1
    m_Duration: 0.3
  m_EquipCompleteEvent:
    m_WaitForAnimationEvent: 0
    m_Duration: 0.15
  m_EquipAnimatorAudioStateSet:
    m_AnimatorAudioStateSelectorData:
      m_ObjectType: Opsive.UltimateCharacterController.Items.AnimatorAudioStates.Random
      m_ValueHashes: 
      m_ValuePositions: 
      m_Values: 
      m_UnityObjects: []
      m_Version: 2.0
    m_States:
    - m_States:
      - m_Name: Default
        m_Preset: {fileID: 0}
        m_BlockList: []
        m_Default: 1
      m_Enabled: 1
      m_AllowDuringMovement: 1
      m_RequireGrounded: 0
      m_StateName: 
      m_ItemSubstateIndex: 0
      m_AudioClipSet:
        m_Delay: 0
        m_AudioClips:
        - {fileID: 8300000, guid: dcc0a065ab91de840af4caa3ddd04153, type: 3}
  m_UnequipEvent:
    m_WaitForAnimationEvent: 1
    m_Duration: 0.1
  m_UnequipCompleteEvent:
    m_WaitForAnimationEvent: 0
    m_Duration: 0.1
  m_UnequipAnimatorAudioStateSet:
    m_AnimatorAudioStateSelectorData:
      m_ObjectType: Opsive.UltimateCharacterController.Items.AnimatorAudioStates.Random
      m_ValueHashes: 
      m_ValuePositions: 
      m_Values: 
      m_UnityObjects: []
      m_Version: 2.0
    m_States:
    - m_States:
      - m_Name: Default
        m_Preset: {fileID: 0}
        m_BlockList: []
        m_Default: 1
      m_Enabled: 1
      m_AllowDuringMovement: 1
      m_RequireGrounded: 0
      m_StateName: 
      m_ItemSubstateIndex: 0
      m_AudioClipSet:
        m_Delay: 0
        m_AudioClips:
        - {fileID: 8300000, guid: c5695d2ff2afa69468cbf347a1b0fe01, type: 3}
  m_UIMonitorID: 0
  m_Icon: {fileID: 21300018, guid: 5fb67c614ba76ca45a811c8e1f7be476, type: 3}
  m_ShowCrosshairsOnAim: 1
  m_CenterCrosshairs: {fileID: 21300072, guid: 5fb67c614ba76ca45a811c8e1f7be476, type: 3}
  m_QuadrantOffset: 5
  m_MaxQuadrantSpread: 10
  m_QuadrantSpreadDamping: 0.05
  m_LeftCrosshairs: {fileID: 0}
  m_TopCrosshairs: {fileID: 0}
  m_RightCrosshairs: {fileID: 0}
  m_BottomCrosshairs: {fileID: 0}
  m_ShowFullScreenUI: 0
  m_FullScreenUIID: -1
  m_PickupItemEvent:
    m_PersistentCalls:
      m_Calls: []
    m_TypeName: UnityEngine.Events.UnityEvent, UnityEngine.CoreModule, Version=0.0.0.0,
      Culture=neutral, PublicKeyToken=null
  m_EquipItemEvent:
    m_PersistentCalls:
      m_Calls: []
    m_TypeName: UnityEngine.Events.UnityEvent, UnityEngine.CoreModule, Version=0.0.0.0,
      Culture=neutral, PublicKeyToken=null
  m_UnequipItemEvent:
    m_PersistentCalls:
      m_Calls: []
    m_TypeName: UnityEngine.Events.UnityEvent, UnityEngine.CoreModule, Version=0.0.0.0,
      Culture=neutral, PublicKeyToken=null
  m_DropItemEvent:
    m_PersistentCalls:
      m_Calls: []
    m_TypeName: UnityEngine.Events.UnityEvent, UnityEngine.CoreModule, Version=0.0.0.0,
      Culture=neutral, PublicKeyToken=null
--- !u!114 &114973745923523750
MonoBehaviour:
  m_ObjectHideFlags: 0
  m_CorrespondingSourceObject: {fileID: 0}
  m_PrefabInstance: {fileID: 0}
  m_PrefabAsset: {fileID: 0}
  m_GameObject: {fileID: 1834043069192340}
  m_Enabled: 1
  m_EditorHideFlags: 0
  m_Script: {fileID: 11500000, guid: 5476160779b6bb145b4eb7245c6888d8, type: 3}
  m_Name: 
  m_EditorClassIdentifier: 
  m_States:
  - m_Name: Run
    m_Preset: {fileID: 11400000, guid: 329a0394b7421574781f94424b8eded8, type: 2}
    m_BlockList: []
    m_Default: 0
  - m_Name: Default
    m_Preset: {fileID: 0}
    m_BlockList: []
    m_Default: 1
  m_Object: {fileID: 0}
  m_LocalSpawnPosition: {x: 0.041, y: 0.0723, z: 0.0369}
  m_LocalSpawnRotation: {x: -99.809, y: 6.585999, z: -103.767}
  m_FirstPersonBaseObjectID: 0
  m_VisibleItem: {fileID: 1184007031525994}
  m_VRHandParent: 0
  m_AdditionalControlObjects: []
  m_AdditionalControlObjectBaseIDs: 
  m_PositionSpring:
    m_Stiffness: 0.2
    m_Damping: 0.25
    m_VelocityFadeInLength: 1
    m_MaxSoftForceFrames: 120
    m_MinVelocity: 0.00001
    m_MaxVelocity: 10000
    m_MinValue: {x: -10000, y: -10000, z: -10000}
    m_MaxValue: {x: 10000, y: 10000, z: 10000}
  m_PositionOffset: {x: 0, y: -0.075, z: 0}
  m_PositionExitOffset: {x: 0, y: -0.4, z: 0}
  m_PositionFallImpact: 0.2
  m_PositionFallImpactSoftness: 10
  m_PositionFallRetract: 2
  m_PositionMoveSlide: {x: 0.5, y: 2, z: 0.5}
  m_PositionPlatformSlide: {x: 0.5, y: 0.5, z: 0}
  m_PositionInputVelocityScale: 1
  m_PositionMaxInputVelocity: 25
  m_RotationSpring:
    m_Stiffness: 0.48
    m_Damping: 0.2
    m_VelocityFadeInLength: 1
    m_MaxSoftForceFrames: 120
    m_MinVelocity: 0.00001
    m_MaxVelocity: 10000
    m_MinValue: {x: -10000, y: -10000, z: -10000}
    m_MaxValue: {x: 10000, y: 10000, z: 10000}
  m_RotationOffset: {x: 0, y: 0, z: 0}
  m_RotationExitOffset: {x: 30, y: 0, z: -20}
  m_RotationFallImpact: 10
  m_RotationFallImpactSoftness: 5
  m_RotationLookSway: {x: 20, y: 40, z: 0}
  m_RotationStrafeSway: {x: 0, y: 1, z: 0}
  m_RotationVerticalSway: {x: -120, y: 0, z: 0}
  m_RotationPlatformSway: {x: 0, y: 0, z: 0}
  m_RotationGroundSwayMultiplier: 0.5
  m_RotationInputVelocityScale: 1
  m_RotationMaxInputVelocity: 15
  m_PivotPositionSpring:
    m_Stiffness: 0.2
    m_Damping: 0.25
    m_VelocityFadeInLength: 1
    m_MaxSoftForceFrames: 120
    m_MinVelocity: 0.00001
    m_MaxVelocity: 10000
    m_MinValue: {x: -10000, y: -10000, z: -10000}
    m_MaxValue: {x: 10000, y: 10000, z: 10000}
  m_PivotPositionOffset: {x: 0, y: 0, z: 0}
  m_PivotRotationSpring:
    m_Stiffness: 0.05
    m_Damping: 0.2
    m_VelocityFadeInLength: 1
    m_MaxSoftForceFrames: 120
    m_MinVelocity: 0.00001
    m_MaxVelocity: 10000
    m_MinValue: {x: -10000, y: -10000, z: -10000}
    m_MaxValue: {x: 10000, y: 10000, z: 10000}
  m_PivotRotationOffset: {x: 0, y: 0, z: 0}
  m_ShakeSpeed: 0.15
  m_ShakeAmplitude: {x: 4, y: 2, z: 1}
  m_BobPositionalRate: {x: 0.7, y: 1.4, z: 0}
  m_BobPositionalAmplitude: {x: 0.7, y: 0.7, z: 0}
  m_BobRotationalRate: {x: 0.7, y: 0, z: 0}
  m_BobRotationalAmplitude: {x: 400, y: 0, z: 0}
  m_BobInputVelocityScale: 1
  m_BobMaxInputVelocity: 100
  m_BobRequireGroundContact: 1
  m_StepMinVelocity: 5
  m_StepSoftness: 4
  m_StepPositionForce: {x: 0, y: -0.0012, z: 0}
  m_StepRotationForce: {x: 0, y: 0, z: -0.0012}
  m_StepForceScale: 1
  m_StepPositionBalance: 0
  m_StepRotationBalance: 0
--- !u!114 &114212549968636176
MonoBehaviour:
  m_ObjectHideFlags: 0
  m_CorrespondingSourceObject: {fileID: 0}
  m_PrefabInstance: {fileID: 0}
  m_PrefabAsset: {fileID: 0}
  m_GameObject: {fileID: 1834043069192340}
  m_Enabled: 1
  m_EditorHideFlags: 0
  m_Script: {fileID: 11500000, guid: c5b5dc98af0593b4589b67fcfc5b4c85, type: 3}
  m_Name: 
  m_EditorClassIdentifier: 
  m_States:
  - m_Name: Default
    m_Preset: {fileID: 0}
    m_BlockList: []
    m_Default: 1
  m_Object: {fileID: 1713900775003260}
  m_LocalSpawnPosition: {x: 0.041, y: 0.0723, z: 0.0369}
  m_LocalSpawnRotation: {x: -99.809, y: 6.585999, z: -103.767}
  m_UseParentHumanoidBone: 1
  m_ParentHumanoidBone: 17
  m_NonDominantHandIKTarget: {fileID: 0}
  m_NonDominantHandIKTargetHint: {fileID: 0}
  m_HolsterTarget: {fileID: 0}
  m_HolsterID: -1
--- !u!114 &114321792619531958
MonoBehaviour:
  m_ObjectHideFlags: 0
  m_CorrespondingSourceObject: {fileID: 0}
  m_PrefabInstance: {fileID: 0}
  m_PrefabAsset: {fileID: 0}
  m_GameObject: {fileID: 1834043069192340}
  m_Enabled: 1
  m_EditorHideFlags: 0
  m_Script: {fileID: 11500000, guid: ebb0968eac9d95c4dba0758d04feb1c3, type: 3}
  m_Name: 
  m_EditorClassIdentifier: 
  m_States:
  - m_Name: FirstPerson
    m_Preset: {fileID: 11400000, guid: 1ac2a37ca497c51469040d39f655af31, type: 2}
    m_BlockList: []
    m_Default: 0
  - m_Name: Default
    m_Preset: {fileID: 0}
    m_BlockList: []
    m_Default: 1
  m_ID: 0
  m_UseRate: 0.1
  m_CanEquipEmptyItem: 1
  m_FaceTarget: 1
  m_StopUseAbilityDelay: 0.25
  m_UseEvent:
    m_WaitForAnimationEvent: 0
    m_Duration: 0
  m_UseCompleteEvent:
    m_WaitForAnimationEvent: 0
    m_Duration: 0.25
  m_ForceRootMotionPosition: 0
  m_ForceRootMotionRotation: 0
  m_UseAttributeName: 
  m_UseAttributeAmount: 0
  m_DropWhenUseDepleted: 0
  m_CharacterUseAttributeName: 
  m_CharacterUseAttributeAmount: 0
  m_PlayAudioOnStartUse: 0
  m_UseAnimatorAudioStateSet:
    m_AnimatorAudioStateSelectorData:
      m_ObjectType: Opsive.UltimateCharacterController.Items.AnimatorAudioStates.Random
      m_ValueHashes: 
      m_ValuePositions: 
      m_Values: 
      m_UnityObjects: []
      m_Version: 2.0
    m_States:
    - m_States:
      - m_Name: Default
        m_Preset: {fileID: 0}
        m_BlockList: []
        m_Default: 1
      m_Enabled: 1
      m_AllowDuringMovement: 1
      m_RequireGrounded: 0
      m_StateName: 
      m_ItemSubstateIndex: 12
      m_AudioClipSet:
        m_Delay: 0
        m_AudioClips:
        - {fileID: 8300000, guid: 9635aab5329b2574a93b7b69c36d742c, type: 3}
  m_ConsumableItemDefinition: {fileID: 114053257604410210, guid: 5481010ef14c32f4cb7b6661b0c59fb4,
    type: 2}
  m_FireMode: 0
  m_FireType: 2
  m_MinChargeLength: 0.2
  m_FullChargeLength: 0.5
  m_ChargeItemSubstateParameterValue: 10
  m_MinChargeStrength: 0.5
  m_ChargeAudioClipSet:
    m_Delay: 0
    m_AudioClips:
    - {fileID: 8300000, guid: 0c39f7d401db73e4fbfcaf6725005160, type: 3}
  m_FireCount: 1
  m_BurstCount: 5
  m_BurstDelay: 0.25
  m_Spread: 0.01
  m_FireInLookSourceDirection: 1
  m_Projectile: {fileID: 1550800345144822, guid: 2b3ba41c9c0c47e4e9776049fe7beb6c,
    type: 3}
  m_ProjectileFireVelocityMagnitude: 40
  m_ProjectileVisibility: 3
  m_ProjectileStartLayer: 2
  m_ProjectileFiredLayer: 28
  m_LayerChangeDelay: 0.1
  m_ProjectileEnableDelayAfterOtherUse: 0.4
  m_DryFireItemSubstateParameterValue: 11
  m_DryFireAudioClipSet:
    m_Delay: 0
    m_AudioClips: []
  m_HitscanFireRange: 3.4028235e+38
  m_MaxHitscanCollisionCount: 4
  m_ImpactLayers:
    serializedVersion: 2
    m_Bits: 3489660889
  m_HitscanTriggerInteraction: 1
  m_DamageAmount: 30
  m_ImpactForce: 2
  m_ImpactForceFrames: 15
  m_ImpactStateName: 
  m_ImpactStateDisableTimer: 10
  m_SurfaceImpact: {fileID: 0}
  m_ClipSize: 1
  m_AutoReload: -1
  m_ReloadType: 0
  m_ReloadCanCameraZoom: 1
  m_ReloadCrosshairsSpread: 1
  m_ReloadAnimatorAudioStateSet:
    m_AnimatorAudioStateSelectorData:
      m_ObjectType: Opsive.UltimateCharacterController.Items.AnimatorAudioStates.Random
      m_ValueHashes: 
      m_ValuePositions: 
      m_Values: 
      m_UnityObjects: []
      m_Version: 2.0
    m_States:
    - m_States:
      - m_Name: Default
        m_Preset: {fileID: 0}
        m_BlockList: []
        m_Default: 1
      m_Enabled: 1
      m_AllowDuringMovement: 1
      m_RequireGrounded: 0
      m_StateName: 
      m_ItemSubstateIndex: 0
      m_AudioClipSet:
        m_Delay: 0
        m_AudioClips:
        - {fileID: 8300000, guid: f01b8c9477365e54f87147bb5a0f1b72, type: 3}
  m_ReloadEvent:
    m_WaitForAnimationEvent: 1
    m_Duration: 0
  m_ReloadCompleteEvent:
    m_WaitForAnimationEvent: 1
    m_Duration: 0
  m_ReloadCompleteAudioClipSet:
    m_Delay: 0
    m_AudioClips: []
  m_ReloadDetachAttachClip: 0
  m_ReloadDetachClipEvent:
    m_WaitForAnimationEvent: 1
    m_Duration: 0.4
  m_ReloadShowProjectileEvent:
    m_WaitForAnimationEvent: 1
    m_Duration: 0.4
  m_ReloadAttachProjectileEvent:
    m_WaitForAnimationEvent: 1
    m_Duration: 0.4
  m_ReloadDropClip: {fileID: 0}
  m_ReloadClipLayerChangeDelay: 0.1
  m_ReloadClipTargetLayer: 28
  m_ReloadDropClipEvent:
    m_WaitForAnimationEvent: 1
    m_Duration: 0.1
  m_ReloadAttachClipEvent:
    m_WaitForAnimationEvent: 1
    m_Duration: 0.4
  m_PositionRecoil:
    m_MinValue: {x: 0, y: 0, z: -0.1}
    m_MaxValue: {x: 0, y: 0.01, z: -0.04}
    m_MinMagnitude: {x: 0, y: 0, z: 0}
  m_RotationRecoil:
    m_MinValue: {x: -0.5, y: -0.5, z: 0}
    m_MaxValue: {x: 0.5, y: 0.5, z: 0}
    m_MinMagnitude: {x: 0, y: 0, z: 0}
  m_PositionCameraRecoil:
    m_MinValue: {x: 0, y: 0, z: 0}
    m_MaxValue: {x: 0, y: 0, z: 0}
    m_MinMagnitude: {x: 0, y: 0, z: 0}
  m_RotationCameraRecoil:
    m_MinValue: {x: -0.5, y: -1, z: 0}
    m_MaxValue: {x: -2, y: 1, z: 0}
    m_MinMagnitude: {x: 0, y: 0, z: 0}
  m_CameraRecoilAccumulation: 0
  m_LocalizeRecoilForce: 0
  m_MuzzleFlash: {fileID: 0}
  m_PoolMuzzleFlash: 1
  m_Shell: {fileID: 0}
  m_ShellVelocity:
    m_MinValue: {x: 3, y: 0, z: 0}
    m_MaxValue: {x: 4, y: 2, z: 0}
    m_MinMagnitude: {x: 0, y: 0, z: 0}
  m_ShellTorque:
    m_MinValue: {x: -50, y: -50, z: -50}
    m_MaxValue: {x: 50, y: 50, z: 50}
    m_MinMagnitude: {x: 0, y: 0, z: 0}
  m_ShellEjectDelay: 0
  m_Smoke: {fileID: 0}
  m_SmokeSpawnDelay: 0
  m_Tracer: {fileID: 0}
  m_TracerDefaultLength: 100
  m_TracerSpawnDelay: 0
  m_DisableScopeCameraOnNoAim: 0
  m_OnHitscanImpactEvent:
    m_PersistentCalls:
      m_Calls: []
    m_TypeName: Opsive.UltimateCharacterController.Events.UnityFloatVector3Vector3GameObjectEvent,
      Opsive.UltimateCharacterController, Version=0.0.0.0, Culture=neutral, PublicKeyToken=null
--- !u!114 &114885762501425736
MonoBehaviour:
  m_ObjectHideFlags: 0
  m_CorrespondingSourceObject: {fileID: 0}
  m_PrefabInstance: {fileID: 0}
  m_PrefabAsset: {fileID: 0}
  m_GameObject: {fileID: 1834043069192340}
  m_Enabled: 1
  m_EditorHideFlags: 0
  m_Script: {fileID: 11500000, guid: 4c426258bc818b74ea6a7c1e863af202, type: 3}
  m_Name: 
  m_EditorClassIdentifier: 
  m_States:
  - m_Name: Default
    m_Preset: {fileID: 0}
    m_BlockList: []
    m_Default: 1
  m_ActionID: 0
  m_LookSensitivity: 0.97
  m_FirePointLocation: {fileID: 4104885567372648}
  m_FirePointAttachmentLocation: {fileID: 0}
  m_FirePointAttachmentLocationID: 4
  m_MuzzleFlashLocation: {fileID: 0}
  m_ShellLocation: {fileID: 0}
  m_SmokeLocation: {fileID: 0}
  m_TracerLocation: {fileID: 0}
  m_ReloadableClip: {fileID: 0}
  m_ReloadableClipAttachment: {fileID: 0}
  m_ReloadableClipAttachmentID: -1
  m_ReloadProjectileAttachment: {fileID: 0}
  m_ReloadProjectileAttachmentID: -1
  m_ScopeCamera: {fileID: 0}
--- !u!114 &114393777696599992
MonoBehaviour:
  m_ObjectHideFlags: 0
  m_CorrespondingSourceObject: {fileID: 0}
  m_PrefabInstance: {fileID: 0}
  m_PrefabAsset: {fileID: 0}
  m_GameObject: {fileID: 1834043069192340}
  m_Enabled: 1
  m_EditorHideFlags: 0
  m_Script: {fileID: 11500000, guid: 94852f5f099f81e4d8109368c13a11e2, type: 3}
  m_Name: 
  m_EditorClassIdentifier: 
  m_States:
  - m_Name: Default
    m_Preset: {fileID: 0}
    m_BlockList: []
    m_Default: 1
  m_ActionID: 0
  m_LookSensitivity: 0.97
  m_FirePointLocation: {fileID: 4513195549490814}
  m_FirePointAttachmentLocation: {fileID: 0}
  m_FirePointAttachmentLocationID: 4
  m_MuzzleFlashLocation: {fileID: 0}
  m_ShellLocation: {fileID: 0}
  m_SmokeLocation: {fileID: 0}
  m_TracerLocation: {fileID: 0}
  m_ReloadableClip: {fileID: 0}
  m_ReloadableClipAttachment: {fileID: 0}
  m_ReloadableClipAttachmentID: -1
  m_ReloadProjectileAttachment: {fileID: 0}
  m_ReloadProjectileAttachmentID: -1
  m_ScopeCamera: {fileID: 0}
--- !u!1 &1842706856247156
GameObject:
  m_ObjectHideFlags: 0
  m_CorrespondingSourceObject: {fileID: 0}
  m_PrefabInstance: {fileID: 0}
  m_PrefabAsset: {fileID: 0}
  serializedVersion: 6
  m_Component:
  - component: {fileID: 4646082627612998}
  m_Layer: 29
  m_Name: Bottom_Bone9
  m_TagString: Untagged
  m_Icon: {fileID: 0}
  m_NavMeshLayer: 0
  m_StaticEditorFlags: 0
  m_IsActive: 1
--- !u!4 &4646082627612998
Transform:
  m_ObjectHideFlags: 0
  m_CorrespondingSourceObject: {fileID: 0}
  m_PrefabInstance: {fileID: 0}
  m_PrefabAsset: {fileID: 0}
  m_GameObject: {fileID: 1842706856247156}
  m_LocalRotation: {x: -0.00000024275488, y: -0.0638868, z: 2.9667219e-15, w: 0.99795717}
  m_LocalPosition: {x: -0.030196965, y: 0.000000002279811, z: 0.000000007450581}
  m_LocalScale: {x: 0.99999994, y: 1, z: 1}
  m_Children: []
  m_Father: {fileID: 4164691218828950}
  m_RootOrder: 0
  m_LocalEulerAnglesHint: {x: 0, y: 0, z: 0}
--- !u!1 &1859143422588754
GameObject:
  m_ObjectHideFlags: 0
  m_CorrespondingSourceObject: {fileID: 0}
  m_PrefabInstance: {fileID: 0}
  m_PrefabAsset: {fileID: 0}
  serializedVersion: 6
  m_Component:
  - component: {fileID: 4873099963635764}
  m_Layer: 29
  m_Name: BowArmature
  m_TagString: Untagged
  m_Icon: {fileID: 0}
  m_NavMeshLayer: 0
  m_StaticEditorFlags: 0
  m_IsActive: 1
--- !u!4 &4873099963635764
Transform:
  m_ObjectHideFlags: 0
  m_CorrespondingSourceObject: {fileID: 0}
  m_PrefabInstance: {fileID: 0}
  m_PrefabAsset: {fileID: 0}
  m_GameObject: {fileID: 1859143422588754}
  m_LocalRotation: {x: -0.7071068, y: 0, z: -0, w: 0.7071067}
  m_LocalPosition: {x: -0, y: 0, z: 0}
  m_LocalScale: {x: 1, y: 1, z: 1}
  m_Children:
  - {fileID: 4068923628064324}
  m_Father: {fileID: 4653453742997424}
  m_RootOrder: 1
  m_LocalEulerAnglesHint: {x: 0, y: 0, z: 0}
--- !u!1 &1864492569852182
GameObject:
  m_ObjectHideFlags: 0
  m_CorrespondingSourceObject: {fileID: 0}
  m_PrefabInstance: {fileID: 0}
  m_PrefabAsset: {fileID: 0}
  serializedVersion: 6
  m_Component:
  - component: {fileID: 4750421707207866}
  m_Layer: 30
  m_Name: BowArmature
  m_TagString: Untagged
  m_Icon: {fileID: 0}
  m_NavMeshLayer: 0
  m_StaticEditorFlags: 0
  m_IsActive: 1
--- !u!4 &4750421707207866
Transform:
  m_ObjectHideFlags: 0
  m_CorrespondingSourceObject: {fileID: 0}
  m_PrefabInstance: {fileID: 0}
  m_PrefabAsset: {fileID: 0}
  m_GameObject: {fileID: 1864492569852182}
  m_LocalRotation: {x: -0.7071068, y: 0, z: -0, w: 0.7071067}
  m_LocalPosition: {x: -0, y: 0, z: 0}
  m_LocalScale: {x: 1, y: 1, z: 1}
  m_Children:
  - {fileID: 4560423022380552}
  m_Father: {fileID: 4091839401978056}
  m_RootOrder: 1
  m_LocalEulerAnglesHint: {x: 0, y: 0, z: 0}
--- !u!1 &1880881629103740
GameObject:
  m_ObjectHideFlags: 0
  m_CorrespondingSourceObject: {fileID: 0}
  m_PrefabInstance: {fileID: 0}
  m_PrefabAsset: {fileID: 0}
  serializedVersion: 6
  m_Component:
  - component: {fileID: 4068923628064324}
  m_Layer: 29
  m_Name: Main
  m_TagString: Untagged
  m_Icon: {fileID: 0}
  m_NavMeshLayer: 0
  m_StaticEditorFlags: 0
  m_IsActive: 1
--- !u!4 &4068923628064324
Transform:
  m_ObjectHideFlags: 0
  m_CorrespondingSourceObject: {fileID: 0}
  m_PrefabInstance: {fileID: 0}
  m_PrefabAsset: {fileID: 0}
  m_GameObject: {fileID: 1880881629103740}
  m_LocalRotation: {x: 0.7071068, y: 0.7071067, z: 0.00000030626776, w: 0.00000030626776}
  m_LocalPosition: {x: -0, y: 0, z: 0}
  m_LocalScale: {x: 1, y: 1, z: 1}
  m_Children:
  - {fileID: 4778678198237118}
  - {fileID: 4885854470596956}
  - {fileID: 4289480986675342}
  - {fileID: 4462058315482612}
  - {fileID: 4875372654984858}
  - {fileID: 4943284473056476}
  - {fileID: 4262613252438076}
  m_Father: {fileID: 4873099963635764}
  m_RootOrder: 0
  m_LocalEulerAnglesHint: {x: 0, y: 0, z: 0}
--- !u!1 &1916494804453456
GameObject:
  m_ObjectHideFlags: 0
  m_CorrespondingSourceObject: {fileID: 0}
  m_PrefabInstance: {fileID: 0}
  m_PrefabAsset: {fileID: 0}
  serializedVersion: 6
  m_Component:
  - component: {fileID: 4621105645244988}
  m_Layer: 29
  m_Name: Top_Bone4
  m_TagString: Untagged
  m_Icon: {fileID: 0}
  m_NavMeshLayer: 0
  m_StaticEditorFlags: 0
  m_IsActive: 1
--- !u!4 &4621105645244988
Transform:
  m_ObjectHideFlags: 0
  m_CorrespondingSourceObject: {fileID: 0}
  m_PrefabInstance: {fileID: 0}
  m_PrefabAsset: {fileID: 0}
  m_GameObject: {fileID: 1916494804453456}
  m_LocalRotation: {x: 0.00000023773231, y: -0.008962737, z: -6.429126e-15, w: 0.9999598}
  m_LocalPosition: {x: -0.042099044, y: 0.000000003178393, z: 0}
  m_LocalScale: {x: 1, y: 1, z: 1}
  m_Children:
  - {fileID: 4266087156349474}
  m_Father: {fileID: 4913895747245240}
  m_RootOrder: 0
  m_LocalEulerAnglesHint: {x: 0, y: 0, z: 0}
--- !u!1 &1936198673584534
GameObject:
  m_ObjectHideFlags: 0
  m_CorrespondingSourceObject: {fileID: 0}
  m_PrefabInstance: {fileID: 0}
  m_PrefabAsset: {fileID: 0}
  serializedVersion: 6
  m_Component:
  - component: {fileID: 4680134189982004}
  m_Layer: 30
  m_Name: Bottom_Bone9
  m_TagString: Untagged
  m_Icon: {fileID: 0}
  m_NavMeshLayer: 0
  m_StaticEditorFlags: 0
  m_IsActive: 1
--- !u!4 &4680134189982004
Transform:
  m_ObjectHideFlags: 0
  m_CorrespondingSourceObject: {fileID: 0}
  m_PrefabInstance: {fileID: 0}
  m_PrefabAsset: {fileID: 0}
  m_GameObject: {fileID: 1936198673584534}
  m_LocalRotation: {x: -0.00000024275488, y: -0.0638868, z: 2.9667219e-15, w: 0.99795717}
  m_LocalPosition: {x: -0.030196965, y: 0.000000002279811, z: 0.000000007450581}
  m_LocalScale: {x: 0.99999994, y: 1, z: 1}
  m_Children: []
  m_Father: {fileID: 4903679039060982}
  m_RootOrder: 0
  m_LocalEulerAnglesHint: {x: 0, y: 0, z: 0}
--- !u!1 &1941140604875138
GameObject:
  m_ObjectHideFlags: 0
  m_CorrespondingSourceObject: {fileID: 0}
  m_PrefabInstance: {fileID: 0}
  m_PrefabAsset: {fileID: 0}
  serializedVersion: 6
  m_Component:
  - component: {fileID: 4904547727862372}
  m_Layer: 30
  m_Name: Top_Bone2
  m_TagString: Untagged
  m_Icon: {fileID: 0}
  m_NavMeshLayer: 0
  m_StaticEditorFlags: 0
  m_IsActive: 1
--- !u!4 &4904547727862372
Transform:
  m_ObjectHideFlags: 0
  m_CorrespondingSourceObject: {fileID: 0}
  m_PrefabInstance: {fileID: 0}
  m_PrefabAsset: {fileID: 0}
  m_GameObject: {fileID: 1941140604875138}
  m_LocalRotation: {x: -0.0000000031182832, y: -0.041303016, z: 2.213283e-15, w: 0.9991467}
  m_LocalPosition: {x: -0.053405996, y: 0.000000004032039, z: 0}
  m_LocalScale: {x: 1.0000001, y: 1, z: 1}
  m_Children:
  - {fileID: 4707238971664226}
  m_Father: {fileID: 4356992018479874}
  m_RootOrder: 0
  m_LocalEulerAnglesHint: {x: 0, y: 0, z: 0}
--- !u!1 &1943548717304794
GameObject:
  m_ObjectHideFlags: 0
  m_CorrespondingSourceObject: {fileID: 0}
  m_PrefabInstance: {fileID: 0}
  m_PrefabAsset: {fileID: 0}
  serializedVersion: 6
  m_Component:
  - component: {fileID: 4707238971664226}
  m_Layer: 30
  m_Name: Top_Bone3
  m_TagString: Untagged
  m_Icon: {fileID: 0}
  m_NavMeshLayer: 0
  m_StaticEditorFlags: 0
  m_IsActive: 1
--- !u!4 &4707238971664226
Transform:
  m_ObjectHideFlags: 0
  m_CorrespondingSourceObject: {fileID: 0}
  m_PrefabInstance: {fileID: 0}
  m_PrefabAsset: {fileID: 0}
  m_GameObject: {fileID: 1943548717304794}
  m_LocalRotation: {x: -0.00000012203299, y: -0.038576182, z: -0.00000000459864, w: 0.99925566}
  m_LocalPosition: {x: -0.048070267, y: 0.000000003629206, z: 0.00000000372529}
  m_LocalScale: {x: 1.0000001, y: 1, z: 1.0000001}
  m_Children:
  - {fileID: 4673779501750250}
  m_Father: {fileID: 4904547727862372}
  m_RootOrder: 0
  m_LocalEulerAnglesHint: {x: 0, y: 0, z: 0}
--- !u!1 &1946602584639916
GameObject:
  m_ObjectHideFlags: 0
  m_CorrespondingSourceObject: {fileID: 0}
  m_PrefabInstance: {fileID: 0}
  m_PrefabAsset: {fileID: 0}
  serializedVersion: 6
  m_Component:
  - component: {fileID: 4417878029323486}
  m_Layer: 29
  m_Name: Bottom_Bone5
  m_TagString: Untagged
  m_Icon: {fileID: 0}
  m_NavMeshLayer: 0
  m_StaticEditorFlags: 0
  m_IsActive: 1
--- !u!4 &4417878029323486
Transform:
  m_ObjectHideFlags: 0
  m_CorrespondingSourceObject: {fileID: 0}
  m_PrefabInstance: {fileID: 0}
  m_PrefabAsset: {fileID: 0}
  m_GameObject: {fileID: 1946602584639916}
  m_LocalRotation: {x: -0.00000023662588, y: 0.022915578, z: -1.3829322e-15, w: 0.99973744}
  m_LocalPosition: {x: -0.04295731, y: 0.000000003243188, z: -0.000000014901161}
  m_LocalScale: {x: 1, y: 1, z: 1}
  m_Children:
  - {fileID: 4156584278301634}
  m_Father: {fileID: 4487537488583048}
  m_RootOrder: 0
  m_LocalEulerAnglesHint: {x: 0, y: 0, z: 0}
--- !u!1 &1961926436921990
GameObject:
  m_ObjectHideFlags: 0
  m_CorrespondingSourceObject: {fileID: 0}
  m_PrefabInstance: {fileID: 0}
  m_PrefabAsset: {fileID: 0}
  serializedVersion: 6
  m_Component:
  - component: {fileID: 4487537488583048}
  m_Layer: 29
  m_Name: Bottom_Bone4
  m_TagString: Untagged
  m_Icon: {fileID: 0}
  m_NavMeshLayer: 0
  m_StaticEditorFlags: 0
  m_IsActive: 1
--- !u!4 &4487537488583048
Transform:
  m_ObjectHideFlags: 0
  m_CorrespondingSourceObject: {fileID: 0}
  m_PrefabInstance: {fileID: 0}
  m_PrefabAsset: {fileID: 0}
  m_GameObject: {fileID: 1961926436921990}
  m_LocalRotation: {x: 0.0000002390856, y: 0.008962737, z: -1.6595798e-15, w: 0.9999598}
  m_LocalPosition: {x: -0.042099044, y: 0.000000003178386, z: 0}
  m_LocalScale: {x: 1, y: 1, z: 1}
  m_Children:
  - {fileID: 4417878029323486}
  m_Father: {fileID: 4550479972411232}
  m_RootOrder: 0
  m_LocalEulerAnglesHint: {x: 0, y: 0, z: 0}
--- !u!1 &1969706825444100
GameObject:
  m_ObjectHideFlags: 0
  m_CorrespondingSourceObject: {fileID: 0}
  m_PrefabInstance: {fileID: 0}
  m_PrefabAsset: {fileID: 0}
  serializedVersion: 6
  m_Component:
  - component: {fileID: 4018573782662570}
  m_Layer: 29
  m_Name: Top_Bone1
  m_TagString: Untagged
  m_Icon: {fileID: 0}
  m_NavMeshLayer: 0
  m_StaticEditorFlags: 0
  m_IsActive: 1
--- !u!4 &4018573782662570
Transform:
  m_ObjectHideFlags: 0
  m_CorrespondingSourceObject: {fileID: 0}
  m_PrefabInstance: {fileID: 0}
  m_PrefabAsset: {fileID: 0}
  m_GameObject: {fileID: 1969706825444100}
  m_LocalRotation: {x: -0.0000001276351, y: -0.12373943, z: 0.000000014750871, w: 0.99231476}
  m_LocalPosition: {x: -0.20983194, y: 0.00000001584187, z: 0.000000001862645}
  m_LocalScale: {x: 1, y: 1, z: 1}
  m_Children:
  - {fileID: 4419857593908308}
  m_Father: {fileID: 4875372654984858}
  m_RootOrder: 0
  m_LocalEulerAnglesHint: {x: 0, y: 0, z: 0}
--- !u!1 &1978625429252776
GameObject:
  m_ObjectHideFlags: 0
  m_CorrespondingSourceObject: {fileID: 0}
  m_PrefabInstance: {fileID: 0}
  m_PrefabAsset: {fileID: 0}
  serializedVersion: 6
  m_Component:
  - component: {fileID: 4199295885085152}
  m_Layer: 29
  m_Name: Top_Bone7
  m_TagString: Untagged
  m_Icon: {fileID: 0}
  m_NavMeshLayer: 0
  m_StaticEditorFlags: 0
  m_IsActive: 1
--- !u!4 &4199295885085152
Transform:
  m_ObjectHideFlags: 0
  m_CorrespondingSourceObject: {fileID: 0}
  m_PrefabInstance: {fileID: 0}
  m_PrefabAsset: {fileID: 0}
  m_GameObject: {fileID: 1978625429252776}
  m_LocalRotation: {x: -0.00000011952044, y: -0.0041346382, z: 4.9288723e-10, w: 0.9999915}
  m_LocalPosition: {x: -0.040982448, y: 0.000000003094087, z: -0.000000014901161}
  m_LocalScale: {x: 1, y: 1, z: 0.99999994}
  m_Children:
  - {fileID: 4799375473425052}
  m_Father: {fileID: 4093541626654792}
  m_RootOrder: 0
  m_LocalEulerAnglesHint: {x: 0, y: 0, z: 0}
